boards/mimasv2/99-big80-lpddr/logiccap.vcd
$date
  Wed Jan 29 23:36:03 2020
$end
$version
  LogicCap v1.0
$end
$timescale
  1 fs
$end
$scope module signals $end
$var reg 16 ! s_pc $end
$var reg 16 " s_cpu_addr $end
$var reg 8 # s_cpu_din $end
$var reg 8 $ s_cpu_dout $end
$var reg 1 % s_cpu_mreq_n $end
$var reg 1 & s_cpu_iorq_n $end
$var reg 1 ' s_cpu_rd_n $end
$var reg 1 ( s_cpu_wr_n $end
$var reg 32 ) mig_port_rd_data $end
$var reg 32 * mig_port_wr_data $end
$var reg 4 + mig_port_wr_mask $end
$upscope $end
$enddefinitions $end
$dumpvars
#0
bUUUUUUUUUUUUUUUU !
bUUUUUUUUUUUUUUUU "
bUUUUUUUU #
bUUUUUUUU $
U%
U&
U'
U(
bUUUUUUUUUUUUUUUUUUUUUUUUUUUUUUUU )
bUUUUUUUUUUUUUUUUUUUUUUUUUUUUUUUU *
bUUUU +
#10000000
b0000000000000110 !
b0000000000000110 "
b11111111 #
b00000000 $
1%
1&
1'
1(
b00000000000000001111111111111111 )
b00000000000000000000000000000000 *
b1011 +
#20000000
b00000110 #
0%
0'
#30000000
b0000000000000010 "
b11111111 #
1%
1'
#40000000
0%
#50000000
b0000000000000111 "
1%
b0111 +
#60000000
b00000000 #
0%
0'
#70000000
b11111111 #
1%
1'
#80000000
b0000000000001000 !
b0000000000001000 "
b1110 +
#90000000
b01110000 #
0%
0'
#100000000
b0000000000000011 "
b11111111 #
1%
1'
b0111 +
#110000000
0%
#120000000
b0100000000000000 "
1%
b1110 +
#130000000
0%
0(
b00000111000001100000010100000100 )
#140000000
1%
1(
#150000000
b0000000000001001 !
b0000000000001001 "
b1101 +
#160000000
b00100011 #
0%
0'
#170000000
b0000000000000100 "
b11111111 #
1%
1'
b1110 +
#180000000
0%
#190000000
1%
#210000000
b0000000000001010 !
b0000000000001010 "
b1011 +
#220000000
b00000100 #
0%
0'
#230000000
b0000000000000101 "
b11111111 #
1%
1'
b1101 +
#240000000
0%
#250000000
b0000000000001011 !
b0000000000001011 "
1%
b0111 +
#260000000
b00011011 #
b00000001 $
0%
0'
b00000001000000010000000100000001 *
#270000000
b0000000000000110 "
b11111111 #
1%
1'
b1011 +
#280000000
0%
#290000000
1%
#310000000
b0000000000001100 !
b0000000000001100 "
b1110 +
#320000000
b01111010 #
0%
0'
#330000000
b0000000000000111 "
b11111111 #
1%
1'
b0111 +
#340000000
0%
#350000000
b0000000000001101 !
b0000000000001101 "
1%
b1101 +
#360000000
b10110011 #
b00000011 $
0%
0'
b00000011000000110000001100000011 *
#370000000
b0000000000001000 "
b11111111 #
1%
1'
b1110 +
#380000000
0%
#390000000
b0000000000001110 !
b0000000000001110 "
1%
b1011 +
#400000000
b00100000 #
b11111111 $
0%
0'
b11111111111111111111111111111111 *
#410000000
b0000000000001001 "
b11111111 #
1%
1'
b1101 +
#420000000
0%
#430000000
b0000000000001111 "
1%
b0111 +
#440000000
b11111000 #
b00000001 $
0%
0'
b00000001000000010000000100000001 *
#450000000
b11111111 #
1%
1'
#460000000
b0000000000010000 "
b1110 +
#510000000
b0000000000001000 !
b0000000000001000 "
#520000000
b01110000 #
0%
0'
#530000000
b0000000000001010 "
b11111111 #
1%
1'
b1011 +
#540000000
0%
#550000000
b0100000000000001 "
1%
b1101 +
#560000000
0%
0(
#570000000
1%
1(
#580000000
b0000000000001001 !
b0000000000001001 "
#590000000
b00100011 #
0%
0'
#600000000
b0000000000001011 "
b11111111 #
1%
1'
b0111 +
#610000000
0%
#620000000
1%
#640000000
b0000000000001010 !
b0000000000001010 "
b1011 +
#650000000
b00000100 #
0%
0'
#660000000
b0000000000001100 "
b11111111 #
1%
1'
b1110 +
#670000000
0%
#680000000
b0000000000001011 !
b0000000000001011 "
1%
b0111 +
#690000000
b00011011 #
0%
0'
#700000000
b0000000000001101 "
b11111111 #
1%
1'
b1101 +
#710000000
0%
#720000000
1%
#740000000
b0000000000001100 !
b0000000000001100 "
b1110 +
#750000000
b01111010 #
b00000010 $
0%
0'
b00000010000000100000001000000010 *
#760000000
b0000000000001110 "
b11111111 #
1%
1'
b1011 +
#770000000
0%
#780000000
b0000000000001101 !
b0000000000001101 "
1%
b1101 +
#790000000
b10110011 #
b00000011 $
0%
0'
b00000011000000110000001100000011 *
#800000000
b0000000000001111 "
b11111111 #
1%
1'
b0111 +
#810000000
0%
#820000000
b0000000000001110 !
b0000000000001110 "
1%
b1011 +
#830000000
b00100000 #
b11111110 $
0%
0'
b11111110111111101111111011111110 *
#840000000
b0000000000010000 "
b11111111 #
1%
1'
b1110 +
#850000000
0%
#860000000
b0000000000001111 "
1%
b0111 +
#870000000
b11111000 #
b00000010 $
0%
0'
b00000010000000100000001000000010 *
#880000000
b11111111 #
1%
1'
#890000000
b0000000000010000 "
b1110 +
#940000000
b0000000000001000 !
b0000000000001000 "
#950000000
b01110000 #
0%
0'
#960000000
b0000000000010001 "
b11111111 #
1%
1'
b1101 +
#970000000
0%
#980000000
b0100000000000010 "
1%
b1011 +
#990000000
0%
0(
#1000000000
1%
1(
#1010000000
b0000000000001001 !
b0000000000001001 "
b1101 +
#1020000000
b00100011 #
0%
0'
#1030000000
b0000000000010010 "
b11111111 #
1%
1'
b1011 +
#1040000000
0%
#1050000000
1%
#1070000000
b0000000000001010 !
b0000000000001010 "
#1080000000
b00000100 #
0%
0'
#1090000000
b0000000000010011 "
b11111111 #
1%
1'
b0111 +
#1100000000
0%
#1110000000
b0000000000001011 !
b0000000000001011 "
1%
#1120000000
b00011011 #
b00000001 $
0%
0'
b00000001000000010000000100000001 *
#1130000000
b0000000000010100 "
b11111111 #
1%
1'
b1110 +
#1140000000
0%
#1150000000
1%
#1170000000
b0000000000001100 !
b0000000000001100 "
#1180000000
b01111010 #
b00000011 $
0%
0'
b00000011000000110000001100000011 *
#1190000000
b0000000000010101 "
b11111111 #
1%
1'
b1101 +
#1200000000
0%
#1210000000
b0000000000001101 !
b0000000000001101 "
1%
#1220000000
b10110011 #
0%
0'
#1230000000
b0000000000010110 "
b11111111 #
1%
1'
b1011 +
#1240000000
0%
#1250000000
b0000000000001110 !
b0000000000001110 "
1%
#1260000000
b00100000 #
b11111101 $
0%
0'
b11111101111111011111110111111101 *
#1270000000
b0000000000010111 "
b11111111 #
1%
1'
b0111 +
#1280000000
0%
#1290000000
b0000000000001111 "
1%
#1300000000
b11111000 #
b00000011 $
0%
0'
b00000011000000110000001100000011 *
#1310000000
b11111111 #
1%
1'
#1320000000
b0000000000010000 "
b1110 +
#1370000000
b0000000000001000 !
b0000000000001000 "
#1380000000
b01110000 #
0%
0'
#1390000000
b0000000000011000 "
b11111111 #
1%
1'
#1400000000
0%
#1410000000
b0100000000000011 "
1%
b0111 +
#1420000000
0%
0(
#1430000000
1%
1(
#1440000000
b0000000000001001 !
b0000000000001001 "
b1101 +
#1450000000
b00100011 #
0%
0'
#1460000000
b0000000000011001 "
b11111111 #
1%
1'
#1470000000
0%
#1480000000
1%
#1500000000
b0000000000001010 !
b0000000000001010 "
b1011 +
#1510000000
b00000100 #
0%
0'
#1520000000
b0000000000011010 "
b11111111 #
1%
1'
#1530000000
0%
#1540000000
b0000000000001011 !
b0000000000001011 "
1%
b0111 +
#1550000000
b00011011 #
b00000001 $
0%
0'
b00000001000000010000000100000001 *
#1560000000
b0000000000011011 "
b11111111 #
1%
1'
#1570000000
0%
#1580000000
1%
#1600000000
b0000000000001100 !
b0000000000001100 "
b1110 +
#1610000000
b01111010 #
b00000100 $
0%
0'
b00000100000001000000010000000100 *
#1620000000
b0000000000011100 "
b11111111 #
1%
1'
#1630000000
0%
#1640000000
b0000000000001101 !
b0000000000001101 "
1%
b1101 +
#1650000000
b10110011 #
b00000011 $
0%
0'
b00000011000000110000001100000011 *
#1660000000
b0000000000011101 "
b11111111 #
1%
1'
#1670000000
0%
#1680000000
b0000000000001110 !
b0000000000001110 "
1%
b1011 +
#1690000000
b00100000 #
b11111100 $
0%
0'
b11111100111111001111110011111100 *
#1700000000
b0000000000011110 "
b11111111 #
1%
1'
#1710000000
0%
#1720000000
b0000000000001111 "
1%
b0111 +
#1730000000
b11111000 #
b00000100 $
0%
0'
b00000100000001000000010000000100 *
#1740000000
b11111111 #
1%
1'
#1750000000
b0000000000010000 "
b1110 +
#1800000000
b0000000000001000 !
b0000000000001000 "
#1810000000
b01110000 #
0%
0'
#1820000000
b0000000000011111 "
b11111111 #
1%
1'
b0111 +
#1830000000
0%
#1840000000
b0100000000000100 "
1%
b1110 +
#1850000000
0%
0(
#1860000000
1%
1(
#1870000000
b0000000000001001 !
b0000000000001001 "
b1101 +
#1880000000
b00100011 #
0%
0'
#1890000000
b0000000000100000 "
b11111111 #
1%
1'
b1110 +
#1900000000
0%
#1910000000
1%
#1930000000
b0000000000001010 !
b0000000000001010 "
b1011 +
#1940000000
b00000100 #
0%
0'
#1950000000
b0000000000100001 "
b11111111 #
1%
1'
b1101 +
#1960000000
0%
#1970000000
b0000000000001011 !
b0000000000001011 "
1%
b0111 +
#1980000000
b00011011 #
b00000001 $
0%
0'
b00000001000000010000000100000001 *
#1990000000
b0000000000100010 "
b11111111 #
1%
1'
b1011 +
#2000000000
0%
#2010000000
1%
#2030000000
b0000000000001100 !
b0000000000001100 "
b1110 +
#2040000000
b01111010 #
b00000101 $
0%
0'
b00000101000001010000010100000101 *
#2050000000
b0000000000100011 "
b11111111 #
1%
1'
b0111 +
#2060000000
0%
#2070000000
b0000000000001101 !
b0000000000001101 "
1%
b1101 +
#2080000000
b10110011 #
b00000011 $
0%
0'
b00000011000000110000001100000011 *
#2090000000
b0000000000100100 "
b11111111 #
1%
1'
b1110 +
#2100000000
0%
#2110000000
b0000000000001110 !
b0000000000001110 "
1%
b1011 +
#2120000000
b00100000 #
b11111011 $
0%
0'
b11111011111110111111101111111011 *
#2130000000
b0000000000100101 "
b11111111 #
1%
1'
b1101 +
#2140000000
0%
#2150000000
b0000000000001111 "
1%
b0111 +
#2160000000
b11111000 #
b00000101 $
0%
0'
b00000101000001010000010100000101 *
#2170000000
b11111111 #
1%
1'
#2180000000
b0000000000010000 "
b1110 +
#2230000000
b0000000000001000 !
b0000000000001000 "
#2240000000
b01110000 #
0%
0'
#2250000000
b0000000000100110 "
b11111111 #
1%
1'
b1011 +
#2260000000
0%
#2270000000
b0100000000000101 "
1%
b1101 +
#2280000000
0%
0(
#2290000000
1%
1(
#2300000000
b0000000000001001 !
b0000000000001001 "
#2310000000
b00100011 #
0%
0'
#2320000000
b0000000000100111 "
b11111111 #
1%
1'
b0111 +
#2330000000
0%
#2340000000
1%
#2360000000
b0000000000001010 !
b0000000000001010 "
b1011 +
#2370000000
b00000100 #
0%
0'
#2380000000
b0000000000101000 "
b11111111 #
1%
1'
b1110 +
#2390000000
0%
#2400000000
b0000000000001011 !
b0000000000001011 "
1%
b0111 +
#2410000000
b00011011 #
b00000001 $
0%
0'
b00000001000000010000000100000001 *
#2420000000
b0000000000101001 "
b11111111 #
1%
1'
b1101 +
#2430000000
0%
#2440000000
1%
#2460000000
b0000000000001100 !
b0000000000001100 "
b1110 +
#2470000000
b01111010 #
b00000110 $
0%
0'
b00000110000001100000011000000110 *
#2480000000
b0000000000101010 "
b11111111 #
1%
1'
b1011 +
#2490000000
0%
#2500000000
b0000000000001101 !
b0000000000001101 "
1%
b1101 +
#2510000000
b10110011 #
b00000011 $
0%
0'
b00000011000000110000001100000011 *
#2520000000
b0000000000101011 "
b11111111 #
1%
1'
b0111 +
#2530000000
0%
#2540000000
b0000000000001110 !
b0000000000001110 "
1%
b1011 +
#2550000000
b00100000 #
b11111010 $
0%
0'
b11111010111110101111101011111010 *
#2560000000
b0000000000101100 "
b11111111 #
1%
1'
b1110 +
#2570000000
0%
#2580000000
b0000000000001111 "
1%
b0111 +
#2590000000
b11111000 #
b00000110 $
0%
0'
b00000110000001100000011000000110 *
#2600000000
b11111111 #
1%
1'
#2610000000
b0000000000010000 "
b1110 +
#2660000000
b0000000000001000 !
b0000000000001000 "
#2670000000
b01110000 #
0%
0'
#2680000000
b0000000000101101 "
b11111111 #
1%
1'
b1101 +
#2690000000
0%
#2700000000
b0100000000000110 "
1%
b1011 +
#2710000000
0%
0(
#2720000000
1%
1(
#2730000000
b0000000000001001 !
b0000000000001001 "
b1101 +
#2740000000
b00100011 #
0%
0'
#2750000000
b0000000000101110 "
b11111111 #
1%
1'
b1011 +
#2760000000
0%
#2770000000
1%
#2790000000
b0000000000001010 !
b0000000000001010 "
#2800000000
b00000100 #
0%
0'
#2810000000
b0000000000101111 "
b11111111 #
1%
1'
b0111 +
#2820000000
0%
#2830000000
b0000000000001011 !
b0000000000001011 "
1%
#2840000000
b00011011 #
b00000001 $
0%
0'
b00000001000000010000000100000001 *
#2850000000
b0000000000110000 "
b11111111 #
1%
1'
b1110 +
#2860000000
0%
#2870000000
1%
#2890000000
b0000000000001100 !
b0000000000001100 "
#2900000000
b01111010 #
b00000111 $
0%
0'
b00000111000001110000011100000111 *
#2910000000
b0000000000110001 "
b11111111 #
1%
1'
b1101 +
#2920000000
0%
#2930000000
b0000000000001101 !
b0000000000001101 "
1%
#2940000000
b10110011 #
b00000011 $
0%
0'
b00000011000000110000001100000011 *
#2950000000
b0000000000110010 "
b11111111 #
1%
1'
b1011 +
#2960000000
0%
#2970000000
b0000000000001110 !
b0000000000001110 "
1%
#2980000000
b00100000 #
b11111001 $
0%
0'
b11111001111110011111100111111001 *
#2990000000
b0000000000110011 "
b11111111 #
1%
1'
b0111 +
#3000000000
0%
#3010000000
b0000000000001111 "
1%
#3020000000
b11111000 #
b00000111 $
0%
0'
b00000111000001110000011100000111 *
#3030000000
b11111111 #
1%
1'
#3040000000
b0000000000010000 "
b1110 +
#3090000000
b0000000000001000 !
b0000000000001000 "
#3100000000
b01110000 #
0%
0'
#3110000000
b0000000000110100 "
b11111111 #
1%
1'
#3120000000
0%
#3130000000
b0100000000000111 "
1%
b0111 +
#3140000000
0%
0(
#3150000000
1%
1(
#3160000000
b0000000000001001 !
b0000000000001001 "
b1101 +
#3170000000
b00100011 #
0%
0'
#3180000000
b0000000000110101 "
b11111111 #
1%
1'
#3190000000
0%
#3200000000
1%
#3220000000
b0000000000001010 !
b0000000000001010 "
b1011 +
#3230000000
b00000100 #
0%
0'
#3240000000
b0000000000110110 "
b11111111 #
1%
1'
#3250000000
0%
#3260000000
b0000000000001011 !
b0000000000001011 "
1%
b0111 +
#3270000000
b00011011 #
b00000001 $
0%
0'
b00000001000000010000000100000001 *
#3280000000
b0000000000110111 "
b11111111 #
1%
1'
#3290000000
0%
#3300000000
1%
#3320000000
b0000000000001100 !
b0000000000001100 "
b1110 +
#3330000000
b01111010 #
b00001000 $
0%
0'
b00001000000010000000100000001000 *
#3340000000
b0000000000111000 "
b11111111 #
1%
1'
#3350000000
0%
#3360000000
b0000000000001101 !
b0000000000001101 "
1%
b1101 +
#3370000000
b10110011 #
b00000011 $
0%
0'
b00000011000000110000001100000011 *
#3380000000
b0000000000111001 "
b11111111 #
1%
1'
#3390000000
0%
#3400000000
b0000000000001110 !
b0000000000001110 "
1%
b1011 +
#3410000000
b00100000 #
b11111000 $
0%
0'
b11111000111110001111100011111000 *
#3420000000
b0000000000111010 "
b11111111 #
1%
1'
#3430000000
0%
#3440000000
b0000000000001111 "
1%
b0111 +
#3450000000
b11111000 #
b00001000 $
0%
0'
b00001000000010000000100000001000 *
#3460000000
b11111111 #
1%
1'
#3470000000
b0000000000010000 "
b1110 +
#3520000000
b0000000000001000 !
b0000000000001000 "
#3530000000
b01110000 #
0%
0'
#3540000000
b0000000000111011 "
b11111111 #
1%
1'
b0111 +
#3550000000
0%
#3560000000
b0100000000001000 "
1%
b1110 +
#3570000000
0%
0(
b00001111000011100000110100001100 )
#3580000000
1%
1(
#3590000000
b0000000000001001 !
b0000000000001001 "
b1101 +
#3600000000
b00100011 #
0%
0'
#3610000000
b0000000000111100 "
b11111111 #
1%
1'
b1110 +
#3620000000
0%
#3630000000
1%
#3650000000
b0000000000001010 !
b0000000000001010 "
b1011 +
#3660000000
b00000100 #
0%
0'
#3670000000
b0000000000111101 "
b11111111 #
1%
1'
b1101 +
#3680000000
0%
#3690000000
b0000000000001011 !
b0000000000001011 "
1%
b0111 +
#3700000000
b00011011 #
b00000001 $
0%
0'
b00000001000000010000000100000001 *
#3710000000
b0000000000111110 "
b11111111 #
1%
1'
b1011 +
#3720000000
0%
#3730000000
1%
#3750000000
b0000000000001100 !
b0000000000001100 "
b1110 +
#3760000000
b01111010 #
b00001001 $
0%
0'
b00001001000010010000100100001001 *
#3770000000
b0000000000111111 "
b11111111 #
1%
1'
b0111 +
#3780000000
0%
#3790000000
b0000000000001101 !
b0000000000001101 "
1%
b1101 +
#3800000000
b10110011 #
b00000011 $
0%
0'
b00000011000000110000001100000011 *
#3810000000
b0000000001000000 "
b11111111 #
1%
1'
b1110 +
#3820000000
0%
#3830000000
b0000000000001110 !
b0000000000001110 "
1%
b1011 +
#3840000000
b00100000 #
b11110111 $
0%
0'
b11110111111101111111011111110111 *
#3850000000
b0000000001000001 "
b11111111 #
1%
1'
b1101 +
#3860000000
0%
#3870000000
b0000000000001111 "
1%
b0111 +
#3880000000
b11111000 #
b00001001 $
0%
0'
b00001001000010010000100100001001 *
#3890000000
b11111111 #
1%
1'
#3900000000
b0000000000010000 "
b1110 +
#3950000000
b0000000000001000 !
b0000000000001000 "
#3960000000
b01110000 #
0%
0'
#3970000000
b0000000001000010 "
b11111111 #
1%
1'
b1011 +
#3980000000
0%
#3990000000
b0100000000001001 "
1%
b1101 +
#4000000000
0%
0(
#4010000000
1%
1(
#4020000000
b0000000000001001 !
b0000000000001001 "
#4030000000
b00100011 #
0%
0'
#4040000000
b0000000001000011 "
b11111111 #
1%
1'
b0111 +
#4050000000
0%
#4060000000
1%
#4080000000
b0000000000001010 !
b0000000000001010 "
b1011 +
#4090000000
b00000100 #
0%
0'
#4100000000
b0000000001000100 "
b11111111 #
1%
1'
b1110 +
#4110000000
0%
#4120000000
b0000000000001011 !
b0000000000001011 "
1%
b0111 +
#4130000000
b00011011 #
b00000001 $
0%
0'
b00000001000000010000000100000001 *
#4140000000
b0000000001000101 "
b11111111 #
1%
1'
b1101 +
#4150000000
0%
#4160000000
1%
#4180000000
b0000000000001100 !
b0000000000001100 "
b1110 +
#4190000000
b01111010 #
b00001010 $
0%
0'
b00001010000010100000101000001010 *
#4200000000
b0000000001000110 "
b11111111 #
1%
1'
b1011 +
#4210000000
0%
#4220000000
b0000000000001101 !
b0000000000001101 "
1%
b1101 +
#4230000000
b10110011 #
b00000011 $
0%
0'
b00000011000000110000001100000011 *
#4240000000
b0000000001000111 "
b11111111 #
1%
1'
b0111 +
#4250000000
0%
#4260000000
b0000000000001110 !
b0000000000001110 "
1%
b1011 +
#4270000000
b00100000 #
b11110110 $
0%
0'
b11110110111101101111011011110110 *
#4280000000
b0000000001001000 "
b11111111 #
1%
1'
b1110 +
#4290000000
0%
#4300000000
b0000000000001111 "
1%
b0111 +
#4310000000
b11111000 #
b00001010 $
0%
0'
b00001010000010100000101000001010 *
#4320000000
b11111111 #
1%
1'
#4330000000
b0000000000010000 "
b1110 +
#4380000000
b0000000000001000 !
b0000000000001000 "
#4390000000
b01110000 #
0%
0'
#4400000000
b0000000001001001 "
b11111111 #
1%
1'
b1101 +
#4410000000
0%
#4420000000
b0100000000001010 "
1%
b1011 +
#4430000000
0%
0(
#4440000000
1%
1(
#4450000000
b0000000000001001 !
b0000000000001001 "
b1101 +
#4460000000
b00100011 #
0%
0'
#4470000000
b0000000001001010 "
b11111111 #
1%
1'
b1011 +
#4480000000
0%
#4490000000
1%
#4510000000
b0000000000001010 !
b0000000000001010 "
#4520000000
b00000100 #
0%
0'
#4530000000
b0000000001001011 "
b11111111 #
1%
1'
b0111 +
#4540000000
0%
#4550000000
b0000000000001011 !
b0000000000001011 "
1%
#4560000000
b00011011 #
b00000001 $
0%
0'
b00000001000000010000000100000001 *
#4570000000
b0000000001001100 "
b11111111 #
1%
1'
b1110 +
#4580000000
0%
#4590000000
1%
#4610000000
b0000000000001100 !
b0000000000001100 "
#4620000000
b01111010 #
b00001011 $
0%
0'
b00001011000010110000101100001011 *
#4630000000
b0000000001001101 "
b11111111 #
1%
1'
b1101 +
#4640000000
0%
#4650000000
b0000000000001101 !
b0000000000001101 "
1%
#4660000000
b10110011 #
b00000011 $
0%
0'
b00000011000000110000001100000011 *
#4670000000
b0000000001001110 "
b11111111 #
1%
1'
b1011 +
#4680000000
0%
#4690000000
b0000000000001110 !
b0000000000001110 "
1%
#4700000000
b00100000 #
b11110101 $
0%
0'
b11110101111101011111010111110101 *
#4710000000
b0000000001001111 "
b11111111 #
1%
1'
b0111 +
#4720000000
0%
#4730000000
b0000000000001111 "
1%
#4740000000
b11111000 #
b00001011 $
0%
0'
b00001011000010110000101100001011 *
#4750000000
b11111111 #
1%
1'
#4760000000
b0000000000010000 "
b1110 +
#4810000000
b0000000000001000 !
b0000000000001000 "
#4820000000
b01110000 #
0%
0'
#4830000000
b0000000001010000 "
b11111111 #
1%
1'
#4840000000
0%
#4850000000
b0100000000001011 "
1%
b0111 +
#4860000000
0%
0(
#4870000000
1%
1(
#4880000000
b0000000000001001 !
b0000000000001001 "
b1101 +
#4890000000
b00100011 #
0%
0'
#4900000000
b0000000001010001 "
b11111111 #
1%
1'
#4910000000
0%
#4920000000
1%
#4940000000
b0000000000001010 !
b0000000000001010 "
b1011 +
#4950000000
b00000100 #
0%
0'
#4960000000
b0000000001010010 "
b11111111 #
1%
1'
#4970000000
0%
#4980000000
b0000000000001011 !
b0000000000001011 "
1%
b0111 +
#4990000000
b00011011 #
b00000001 $
0%
0'
b00000001000000010000000100000001 *
#5000000000
b0000000001010011 "
b11111111 #
1%
1'
#5010000000
0%
#5020000000
1%
#5040000000
b0000000000001100 !
b0000000000001100 "
b1110 +
#5050000000
b01111010 #
b00001100 $
0%
0'
b00001100000011000000110000001100 *
#5060000000
b0000000001010100 "
b11111111 #
1%
1'
#5070000000
0%
#5080000000
b0000000000001101 !
b0000000000001101 "
1%
b1101 +
#5090000000
b10110011 #
b00000011 $
0%
0'
b00000011000000110000001100000011 *
#5100000000
b0000000001010101 "
b11111111 #
1%
1'
#5110000000
0%
#5120000000
b0000000000001110 !
b0000000000001110 "
1%
b1011 +
#5130000000
b00100000 #
b11110100 $
0%
0'
b11110100111101001111010011110100 *
#5140000000
b0000000001010110 "
b11111111 #
1%
1'
#5150000000
0%
#5160000000
b0000000000001111 "
1%
b0111 +
#5170000000
b11111000 #
b00001100 $
0%
0'
b00001100000011000000110000001100 *
#5180000000
b11111111 #
1%
1'
#5190000000
b0000000000010000 "
b1110 +
#5240000000
b0000000000001000 !
b0000000000001000 "
#5250000000
b01110000 #
0%
0'
#5260000000
b0000000001010111 "
b11111111 #
1%
1'
b0111 +
#5270000000
0%
#5280000000
b0100000000001100 "
1%
b1110 +
#5290000000
0%
0(
#5300000000
1%
1(
#5310000000
b0000000000001001 !
b0000000000001001 "
b1101 +
#5320000000
b00100011 #
0%
0'
#5330000000
b0000000001011000 "
b11111111 #
1%
1'
b1110 +
#5340000000
0%
#5350000000
1%
#5370000000
b0000000000001010 !
b0000000000001010 "
b1011 +
#5380000000
b00000100 #
0%
0'
#5390000000
b0000000001011001 "
b11111111 #
1%
1'
b1101 +
#5400000000
0%
#5410000000
b0000000000001011 !
b0000000000001011 "
1%
b0111 +
#5420000000
b00011011 #
b00000001 $
0%
0'
b00000001000000010000000100000001 *
#5430000000
b0000000001011010 "
b11111111 #
1%
1'
b1011 +
#5440000000
0%
#5450000000
1%
#5470000000
b0000000000001100 !
b0000000000001100 "
b1110 +
#5480000000
b01111010 #
b00001101 $
0%
0'
b00001101000011010000110100001101 *
#5490000000
b0000000001011011 "
b11111111 #
1%
1'
b0111 +
#5500000000
0%
#5510000000
b0000000000001101 !
b0000000000001101 "
1%
b1101 +
#5520000000
b10110011 #
b00000011 $
0%
0'
b00000011000000110000001100000011 *
#5530000000
b0000000001011100 "
b11111111 #
1%
1'
b1110 +
#5540000000
0%
#5550000000
b0000000000001110 !
b0000000000001110 "
1%
b1011 +
#5560000000
b00100000 #
b11110011 $
0%
0'
b11110011111100111111001111110011 *
#5570000000
b0000000001011101 "
b11111111 #
1%
1'
b1101 +
#5580000000
0%
#5590000000
b0000000000001111 "
1%
b0111 +
#5600000000
b11111000 #
b00001101 $
0%
0'
b00001101000011010000110100001101 *
#5610000000
b11111111 #
1%
1'
#5620000000
b0000000000010000 "
b1110 +
#5670000000
b0000000000001000 !
b0000000000001000 "
#5680000000
b01110000 #
0%
0'
#5690000000
b0000000001011110 "
b11111111 #
1%
1'
b1011 +
#5700000000
0%
#5710000000
b0100000000001101 "
1%
b1101 +
#5720000000
0%
0(
#5730000000
1%
1(
#5740000000
b0000000000001001 !
b0000000000001001 "
#5750000000
b00100011 #
0%
0'
#5760000000
b0000000001011111 "
b11111111 #
1%
1'
b0111 +
#5770000000
0%
#5780000000
1%
#5800000000
b0000000000001010 !
b0000000000001010 "
b1011 +
#5810000000
b00000100 #
0%
0'
#5820000000
b0000000001100000 "
b11111111 #
1%
1'
b1110 +
#5830000000
0%
#5840000000
b0000000000001011 !
b0000000000001011 "
1%
b0111 +
#5850000000
b00011011 #
b00000001 $
0%
0'
b00000001000000010000000100000001 *
#5860000000
b0000000001100001 "
b11111111 #
1%
1'
b1101 +
#5870000000
0%
#5880000000
1%
#5900000000
b0000000000001100 !
b0000000000001100 "
b1110 +
#5910000000
b01111010 #
b00001110 $
0%
0'
b00001110000011100000111000001110 *
#5920000000
b0000000001100010 "
b11111111 #
1%
1'
b1011 +
#5930000000
0%
#5940000000
b0000000000001101 !
b0000000000001101 "
1%
b1101 +
#5950000000
b10110011 #
b00000011 $
0%
0'
b00000011000000110000001100000011 *
#5960000000
b0000000001100011 "
b11111111 #
1%
1'
b0111 +
#5970000000
0%
#5980000000
b0000000000001110 !
b0000000000001110 "
1%
b1011 +
#5990000000
b00100000 #
b11110010 $
0%
0'
b11110010111100101111001011110010 *
#6000000000
b0000000001100100 "
b11111111 #
1%
1'
b1110 +
#6010000000
0%
#6020000000
b0000000000001111 "
1%
b0111 +
#6030000000
b11111000 #
b00001110 $
0%
0'
b00001110000011100000111000001110 *
#6040000000
b11111111 #
1%
1'
#6050000000
b0000000000010000 "
b1110 +
#6100000000
b0000000000001000 !
b0000000000001000 "
#6110000000
b01110000 #
0%
0'
#6120000000
b0000000001100101 "
b11111111 #
1%
1'
b1101 +
#6130000000
0%
#6140000000
b0100000000001110 "
1%
b1011 +
#6150000000
0%
0(
#6160000000
1%
1(
#6170000000
b0000000000001001 !
b0000000000001001 "
b1101 +
#6180000000
b00100011 #
0%
0'
#6190000000
b0000000001100110 "
b11111111 #
1%
1'
b1011 +
#6200000000
0%
#6210000000
1%
#6230000000
b0000000000001010 !
b0000000000001010 "
#6240000000
b00000100 #
0%
0'
#6250000000
b0000000001100111 "
b11111111 #
1%
1'
b0111 +
#6260000000
0%
#6270000000
b0000000000001011 !
b0000000000001011 "
1%
#6280000000
b00011011 #
b00000001 $
0%
0'
b00000001000000010000000100000001 *
#6290000000
b0000000001101000 "
b11111111 #
1%
1'
b1110 +
#6300000000
0%
#6310000000
1%
#6330000000
b0000000000001100 !
b0000000000001100 "
#6340000000
b01111010 #
b00001111 $
0%
0'
b00001111000011110000111100001111 *
#6350000000
b0000000001101001 "
b11111111 #
1%
1'
b1101 +
#6360000000
0%
#6370000000
b0000000000001101 !
b0000000000001101 "
1%
#6380000000
b10110011 #
b00000011 $
0%
0'
b00000011000000110000001100000011 *
#6390000000
b0000000001101010 "
b11111111 #
1%
1'
b1011 +
#6400000000
0%
#6410000000
b0000000000001110 !
b0000000000001110 "
1%
#6420000000
b00100000 #
b11110001 $
0%
0'
b11110001111100011111000111110001 *
#6430000000
b0000000001101011 "
b11111111 #
1%
1'
b0111 +
#6440000000
0%
#6450000000
b0000000000001111 "
1%
#6460000000
b11111000 #
b00001111 $
0%
0'
b00001111000011110000111100001111 *
#6470000000
b11111111 #
1%
1'
#6480000000
b0000000000010000 "
b1110 +
#6530000000
b0000000000001000 !
b0000000000001000 "
#6540000000
b01110000 #
0%
0'
#6550000000
b0000000001101100 "
b11111111 #
1%
1'
#6560000000
0%
#6570000000
b0100000000001111 "
1%
b0111 +
#6580000000
0%
0(
#6590000000
1%
1(
#6600000000
b0000000000001001 !
b0000000000001001 "
b1101 +
#6610000000
b00100011 #
0%
0'
#6620000000
b0000000001101101 "
b11111111 #
1%
1'
#6630000000
0%
#6640000000
1%
#6660000000
b0000000000001010 !
b0000000000001010 "
b1011 +
#6670000000
b00000100 #
0%
0'
#6680000000
b0000000001101110 "
b11111111 #
1%
1'
#6690000000
0%
#6700000000
b0000000000001011 !
b0000000000001011 "
1%
b0111 +
#6710000000
b00011011 #
b00000001 $
0%
0'
b00000001000000010000000100000001 *
#6720000000
b0000000001101111 "
b11111111 #
1%
1'
#6730000000
0%
#6740000000
1%
#6760000000
b0000000000001100 !
b0000000000001100 "
b1110 +
#6770000000
b01111010 #
b00010000 $
0%
0'
b00010000000100000001000000010000 *
#6780000000
b0000000001110000 "
b11111111 #
1%
1'
#6790000000
0%
#6800000000
b0000000000001101 !
b0000000000001101 "
1%
b1101 +
#6810000000
b10110011 #
b00000011 $
0%
0'
b00000011000000110000001100000011 *
#6820000000
b0000000001110001 "
b11111111 #
1%
1'
#6830000000
0%
#6840000000
b0000000000001110 !
b0000000000001110 "
1%
b1011 +
#6850000000
b00100000 #
b11110000 $
0%
0'
b11110000111100001111000011110000 *
