boards/mimasv2/07-t80-lpddr/logiccap.vcd
$date
  Thu Jan 30 02:39:27 2020
$end
$version
  LogicCap v1.0
$end
$timescale
  1 fs
$end
$scope module signals $end
$var reg 16 ! s_pc $end
$var reg 16 " s_cpu_addr $end
$var reg 8 # s_cpu_din $end
$var reg 8 $ s_cpu_dout $end
$var reg 1 % s_cpu_mreq_n $end
$var reg 1 & s_cpu_iorq_n $end
$var reg 1 ' s_cpu_rd_n $end
$var reg 1 ( s_cpu_wr_n $end
$var reg 1 ) s_cpu_wait_n $end
$var reg 1 * s_ram_write_ready $end
$var reg 1 + s_ram_write_pulse $end
$upscope $end
$enddefinitions $end
$dumpvars
#0
bUUUUUUUUUUUUUUUU !
bUUUUUUUUUUUUUUUU "
bUUUUUUUU #
bUUUUUUUU $
U%
U&
U'
U(
U)
U*
U+
#10000000
b1111111111111111 !
b0000000000000000 "
b11111111 #
b00000000 $
1%
1&
1'
1(
1)
0*
0+
#20000000
b0000000000000000 !
#30000000
b00111110 #
0%
0'
#40000000
b11111111 #
1%
1'
#50000000
0%
#60000000
b0000000000000001 "
1%
#70000000
b10100110 #
0%
0'
#80000000
b11111111 #
1%
1'
#90000000
b0000000000000010 !
b0000000000000010 "
#100000000
b00110010 #
0%
0'
#110000000
b0000000000000001 "
b11111111 #
1%
1'
#120000000
0%
#130000000
b0000000000000011 "
1%
#140000000
0%
0'
#150000000
1%
1'
#160000000
b0000000000000100 "
#170000000
0%
0'
#180000000
1%
1'
#190000000
b1111111111111111 "
0)
#200000000
b10100110 $
0%
0(
#300000000
1)
1*
1+
#310000000
1%
1(
0*
0+
#320000000
b0000000000000101 !
b0000000000000101 "
#330000000
b00111010 #
b00000000 $
0%
0'
#340000000
b0000000000000010 "
b11111111 #
1%
1'
#350000000
0%
#360000000
b0000000000000110 "
1%
#370000000
b00000000 #
0%
0'
#380000000
b11111111 #
1%
1'
#390000000
b0000000000000111 "
#400000000
b01000000 #
0%
0'
#410000000
b11111111 #
1%
1'
#420000000
b0100000000000000 "
0)
#430000000
b10100110 #
0%
0'
#530000000
b11000011 #
1)
#540000000
b11111111 #
1%
1'
#550000000
b0000000000001000 !
b0000000000001000 "
#560000000
b00111010 #
0%
0'
#570000000
b0000000000000011 "
b11111111 #
1%
1'
#580000000
0%
#590000000
b0000000000001001 "
1%
#600000000
0%
0'
#610000000
1%
1'
#620000000
b0000000000001010 "
#630000000
0%
0'
#640000000
1%
1'
#650000000
b1111111111111111 "
0)
#660000000
b11000011 #
0%
0'
#760000000
b10100110 #
1)
#770000000
b11111111 #
1%
1'
#780000000
b0000000000001011 !
b0000000000001011 "
#790000000
b11010011 #
0%
0'
#800000000
b0000000000000100 "
b11111111 #
1%
1'
#810000000
0%
#820000000
b0000000000001100 "
1%
#830000000
b00000000 #
0%
0'
#840000000
b11111111 #
1%
1'
#850000000
b1010011000000000 "
0)
#860000000
b10100110 $
0&
0(
#960000000
1)
#970000000
1&
1(
#980000000
b0000000000001101 !
b0000000000001101 "
#990000000
b00011000 #
b00000000 $
0%
0'
#1000000000
b0000000000000101 "
b11111111 #
1%
1'
#1010000000
0%
#1020000000
b0000000000001110 "
1%
#1030000000
b11111110 #
0%
0'
#1040000000
b11111111 #
1%
1'
#1050000000
b0000000000001111 "
#1100000000
b0000000000001101 "
#1110000000
b00011000 #
0%
0'
#1120000000
b0000000000000110 "
b11111111 #
1%
1'
#1130000000
0%
#1140000000
b0000000000001110 "
1%
#1150000000
b11111110 #
0%
0'
#1160000000
b11111111 #
1%
1'
#1170000000
b0000000000001111 "
#1220000000
b0000000000001101 "
#1230000000
b00011000 #
0%
0'
#1240000000
b0000000000000111 "
b11111111 #
1%
1'
#1250000000
0%
#1260000000
b0000000000001110 "
1%
#1270000000
b11111110 #
0%
0'
#1280000000
b11111111 #
1%
1'
#1290000000
b0000000000001111 "
#1340000000
b0000000000001101 "
#1350000000
b00011000 #
0%
0'
#1360000000
b0000000000001000 "
b11111111 #
1%
1'
#1370000000
0%
#1380000000
b0000000000001110 "
1%
#1390000000
b11111110 #
0%
0'
#1400000000
b11111111 #
1%
1'
#1410000000
b0000000000001111 "
#1460000000
b0000000000001101 "
#1470000000
b00011000 #
0%
0'
#1480000000
b0000000000001001 "
b11111111 #
1%
1'
#1490000000
0%
#1500000000
b0000000000001110 "
1%
#1510000000
b11111110 #
0%
0'
#1520000000
b11111111 #
1%
1'
#1530000000
b0000000000001111 "
#1580000000
b0000000000001101 "
#1590000000
b00011000 #
0%
0'
#1600000000
b0000000000001010 "
b11111111 #
1%
1'
#1610000000
0%
#1620000000
b0000000000001110 "
1%
#1630000000
b11111110 #
0%
0'
#1640000000
b11111111 #
1%
1'
#1650000000
b0000000000001111 "
#1700000000
b0000000000001101 "
#1710000000
b00011000 #
0%
0'
#1720000000
b0000000000001011 "
b11111111 #
1%
1'
#1730000000
0%
#1740000000
b0000000000001110 "
1%
#1750000000
b11111110 #
0%
0'
#1760000000
b11111111 #
1%
1'
#1770000000
b0000000000001111 "
#1820000000
b0000000000001101 "
#1830000000
b00011000 #
0%
0'
#1840000000
b0000000000001100 "
b11111111 #
1%
1'
#1850000000
0%
#1860000000
b0000000000001110 "
1%
#1870000000
b11111110 #
0%
0'
#1880000000
b11111111 #
1%
1'
#1890000000
b0000000000001111 "
#1940000000
b0000000000001101 "
#1950000000
b00011000 #
0%
0'
#1960000000
b11111111 #
1%
1'
#1970000000
0%
#1980000000
b0000000000001110 "
1%
#1990000000
b11111110 #
0%
0'
#2000000000
b11111111 #
1%
1'
#2010000000
b0000000000001111 "
#2060000000
b0000000000001101 "
#2070000000
b00011000 #
0%
0'
#2080000000
b0000000000001110 "
b11111111 #
1%
1'
#2090000000
0%
#2100000000
1%
#2110000000
b11111110 #
0%
0'
#2120000000
b11111111 #
1%
1'
#2130000000
b0000000000001111 "
#2180000000
b0000000000001101 "
#2190000000
b00011000 #
0%
0'
#2200000000
b0000000000001111 "
b11111111 #
1%
1'
#2210000000
0%
#2220000000
b0000000000001110 "
1%
#2230000000
b11111110 #
0%
0'
#2240000000
b11111111 #
1%
1'
#2250000000
b0000000000001111 "
#2300000000
b0000000000001101 "
#2310000000
b00011000 #
0%
0'
#2320000000
b0000000000010000 "
b11111111 #
1%
1'
#2330000000
0%
#2340000000
b0000000000001110 "
1%
#2350000000
b11111110 #
0%
0'
#2360000000
b11111111 #
1%
1'
#2370000000
b0000000000001111 "
#2420000000
b0000000000001101 "
#2430000000
b00011000 #
0%
0'
#2440000000
b0000000000010001 "
b11111111 #
1%
1'
#2450000000
0%
#2460000000
b0000000000001110 "
1%
#2470000000
b11111110 #
0%
0'
#2480000000
b11111111 #
1%
1'
#2490000000
b0000000000001111 "
#2540000000
b0000000000001101 "
#2550000000
b00011000 #
0%
0'
#2560000000
b0000000000010010 "
b11111111 #
1%
1'
#2570000000
0%
#2580000000
b0000000000001110 "
1%
#2590000000
b11111110 #
0%
0'
#2600000000
b11111111 #
1%
1'
#2610000000
b0000000000001111 "
#2660000000
b0000000000001101 "
#2670000000
b00011000 #
0%
0'
#2680000000
b0000000000010011 "
b11111111 #
1%
1'
#2690000000
0%
#2700000000
b0000000000001110 "
1%
#2710000000
b11111110 #
0%
0'
#2720000000
b11111111 #
1%
1'
#2730000000
b0000000000001111 "
#2780000000
b0000000000001101 "
#2790000000
b00011000 #
0%
0'
#2800000000
b0000000000010100 "
b11111111 #
1%
1'
#2810000000
0%
#2820000000
b0000000000001110 "
1%
#2830000000
b11111110 #
0%
0'
#2840000000
b11111111 #
1%
1'
#2850000000
b0000000000001111 "
#2900000000
b0000000000001101 "
#2910000000
b00011000 #
0%
0'
#2920000000
b0000000000010101 "
b11111111 #
1%
1'
#2930000000
0%
#2940000000
b0000000000001110 "
1%
#2950000000
b11111110 #
0%
0'
#2960000000
b11111111 #
1%
1'
#2970000000
b0000000000001111 "
#3020000000
b0000000000001101 "
#3030000000
b00011000 #
0%
0'
#3040000000
b0000000000010110 "
b11111111 #
1%
1'
#3050000000
0%
#3060000000
b0000000000001110 "
1%
#3070000000
b11111110 #
0%
0'
#3080000000
b11111111 #
1%
1'
#3090000000
b0000000000001111 "
#3140000000
b0000000000001101 "
#3150000000
b00011000 #
0%
0'
#3160000000
b0000000000010111 "
b11111111 #
1%
1'
#3170000000
0%
#3180000000
b0000000000001110 "
1%
#3190000000
b11111110 #
0%
0'
#3200000000
b11111111 #
1%
1'
#3210000000
b0000000000001111 "
#3260000000
b0000000000001101 "
#3270000000
b00011000 #
0%
0'
#3280000000
b0000000000011000 "
b11111111 #
1%
1'
#3290000000
0%
#3300000000
b0000000000001110 "
1%
#3310000000
b11111110 #
0%
0'
#3320000000
b11111111 #
1%
1'
#3330000000
b0000000000001111 "
#3380000000
b0000000000001101 "
#3390000000
b00011000 #
0%
0'
#3400000000
b0000000000011001 "
b11111111 #
1%
1'
#3410000000
0%
#3420000000
b0000000000001110 "
1%
#3430000000
b11111110 #
0%
0'
#3440000000
b11111111 #
1%
1'
#3450000000
b0000000000001111 "
#3500000000
b0000000000001101 "
#3510000000
b00011000 #
0%
0'
#3520000000
b0000000000011010 "
b11111111 #
1%
1'
#3530000000
0%
#3540000000
b0000000000001110 "
1%
#3550000000
b11111110 #
0%
0'
#3560000000
b11111111 #
1%
1'
#3570000000
b0000000000001111 "
#3620000000
b0000000000001101 "
#3630000000
b00011000 #
0%
0'
#3640000000
b0000000000011011 "
b11111111 #
1%
1'
#3650000000
0%
#3660000000
b0000000000001110 "
1%
#3670000000
b11111110 #
0%
0'
#3680000000
b11111111 #
1%
1'
#3690000000
b0000000000001111 "
#3740000000
b0000000000001101 "
#3750000000
b00011000 #
0%
0'
#3760000000
b0000000000011100 "
b11111111 #
1%
1'
#3770000000
0%
#3780000000
b0000000000001110 "
1%
#3790000000
b11111110 #
0%
0'
#3800000000
b11111111 #
1%
1'
#3810000000
b0000000000001111 "
#3860000000
b0000000000001101 "
#3870000000
b00011000 #
0%
0'
#3880000000
b0000000000011101 "
b11111111 #
1%
1'
#3890000000
0%
#3900000000
b0000000000001110 "
1%
#3910000000
b11111110 #
0%
0'
#3920000000
b11111111 #
1%
1'
#3930000000
b0000000000001111 "
#3980000000
b0000000000001101 "
#3990000000
b00011000 #
0%
0'
#4000000000
b0000000000011110 "
b11111111 #
1%
1'
#4010000000
0%
#4020000000
b0000000000001110 "
1%
#4030000000
b11111110 #
0%
0'
#4040000000
b11111111 #
1%
1'
#4050000000
b0000000000001111 "
#4100000000
b0000000000001101 "
#4110000000
b00011000 #
0%
0'
#4120000000
b0000000000011111 "
b11111111 #
1%
1'
#4130000000
0%
#4140000000
b0000000000001110 "
1%
#4150000000
b11111110 #
0%
0'
#4160000000
b11111111 #
1%
1'
#4170000000
b0000000000001111 "
#4220000000
b0000000000001101 "
#4230000000
b00011000 #
0%
0'
#4240000000
b0000000000100000 "
b11111111 #
1%
1'
#4250000000
0%
#4260000000
b0000000000001110 "
1%
#4270000000
b11111110 #
0%
0'
#4280000000
b11111111 #
1%
1'
#4290000000
b0000000000001111 "
#4340000000
b0000000000001101 "
#4350000000
b00011000 #
0%
0'
#4360000000
b0000000000100001 "
b11111111 #
1%
1'
#4370000000
0%
#4380000000
b0000000000001110 "
1%
#4390000000
b11111110 #
0%
0'
#4400000000
b11111111 #
1%
1'
#4410000000
b0000000000001111 "
#4460000000
b0000000000001101 "
#4470000000
b00011000 #
0%
0'
#4480000000
b0000000000100010 "
b11111111 #
1%
1'
#4490000000
0%
#4500000000
b0000000000001110 "
1%
#4510000000
b11111110 #
0%
0'
#4520000000
b11111111 #
1%
1'
#4530000000
b0000000000001111 "
#4580000000
b0000000000001101 "
#4590000000
b00011000 #
0%
0'
#4600000000
b0000000000100011 "
b11111111 #
1%
1'
#4610000000
0%
#4620000000
b0000000000001110 "
1%
#4630000000
b11111110 #
0%
0'
#4640000000
b11111111 #
1%
1'
#4650000000
b0000000000001111 "
#4700000000
b0000000000001101 "
#4710000000
b00011000 #
0%
0'
#4720000000
b0000000000100100 "
b11111111 #
1%
1'
#4730000000
0%
#4740000000
b0000000000001110 "
1%
#4750000000
b11111110 #
0%
0'
#4760000000
b11111111 #
1%
1'
#4770000000
b0000000000001111 "
#4820000000
b0000000000001101 "
#4830000000
b00011000 #
0%
0'
#4840000000
b0000000000100101 "
b11111111 #
1%
1'
#4850000000
0%
#4860000000
b0000000000001110 "
1%
#4870000000
b11111110 #
0%
0'
#4880000000
b11111111 #
1%
1'
#4890000000
b0000000000001111 "
#4940000000
b0000000000001101 "
#4950000000
b00011000 #
0%
0'
#4960000000
b0000000000100110 "
b11111111 #
1%
1'
#4970000000
0%
#4980000000
b0000000000001110 "
1%
#4990000000
b11111110 #
0%
0'
#5000000000
b11111111 #
1%
1'
#5010000000
b0000000000001111 "
#5060000000
b0000000000001101 "
#5070000000
b00011000 #
0%
0'
#5080000000
b0000000000100111 "
b11111111 #
1%
1'
#5090000000
0%
#5100000000
b0000000000001110 "
1%
#5110000000
b11111110 #
0%
0'
#5120000000
b11111111 #
1%
1'
#5130000000
b0000000000001111 "
#5180000000
b0000000000001101 "
#5190000000
b00011000 #
0%
0'
#5200000000
b0000000000101000 "
b11111111 #
1%
1'
#5210000000
0%
#5220000000
b0000000000001110 "
1%
#5230000000
b11111110 #
0%
0'
#5240000000
b11111111 #
1%
1'
#5250000000
b0000000000001111 "
#5300000000
b0000000000001101 "
#5310000000
b00011000 #
0%
0'
#5320000000
b0000000000101001 "
b11111111 #
1%
1'
#5330000000
0%
#5340000000
b0000000000001110 "
1%
#5350000000
b11111110 #
0%
0'
#5360000000
b11111111 #
1%
1'
#5370000000
b0000000000001111 "
#5420000000
b0000000000001101 "
#5430000000
b00011000 #
0%
0'
#5440000000
b0000000000101010 "
b11111111 #
1%
1'
#5450000000
0%
#5460000000
b0000000000001110 "
1%
#5470000000
b11111110 #
0%
0'
#5480000000
b11111111 #
1%
1'
#5490000000
b0000000000001111 "
#5540000000
b0000000000001101 "
#5550000000
b00011000 #
0%
0'
#5560000000
b0000000000101011 "
b11111111 #
1%
1'
#5570000000
0%
#5580000000
b0000000000001110 "
1%
#5590000000
b11111110 #
0%
0'
#5600000000
b11111111 #
1%
1'
#5610000000
b0000000000001111 "
#5660000000
b0000000000001101 "
#5670000000
b00011000 #
0%
0'
#5680000000
b0000000000101100 "
b11111111 #
1%
1'
#5690000000
0%
#5700000000
b0000000000001110 "
1%
#5710000000
b11111110 #
0%
0'
#5720000000
b11111111 #
1%
1'
#5730000000
b0000000000001111 "
#5780000000
b0000000000001101 "
#5790000000
b00011000 #
0%
0'
#5800000000
b0000000000101101 "
b11111111 #
1%
1'
#5810000000
0%
#5820000000
b0000000000001110 "
1%
#5830000000
b11111110 #
0%
0'
#5840000000
b11111111 #
1%
1'
#5850000000
b0000000000001111 "
#5900000000
b0000000000001101 "
#5910000000
b00011000 #
0%
0'
#5920000000
b0000000000101110 "
b11111111 #
1%
1'
#5930000000
0%
#5940000000
b0000000000001110 "
1%
#5950000000
b11111110 #
0%
0'
#5960000000
b11111111 #
1%
1'
#5970000000
b0000000000001111 "
#6020000000
b0000000000001101 "
#6030000000
b00011000 #
0%
0'
#6040000000
b0000000000101111 "
b11111111 #
1%
1'
#6050000000
0%
#6060000000
b0000000000001110 "
1%
#6070000000
b11111110 #
0%
0'
#6080000000
b11111111 #
1%
1'
#6090000000
b0000000000001111 "
#6140000000
b0000000000001101 "
#6150000000
b00011000 #
0%
0'
#6160000000
b0000000000110000 "
b11111111 #
1%
1'
#6170000000
0%
#6180000000
b0000000000001110 "
1%
#6190000000
b11111110 #
0%
0'
#6200000000
b11111111 #
1%
1'
#6210000000
b0000000000001111 "
#6260000000
b0000000000001101 "
#6270000000
b00011000 #
0%
0'
#6280000000
b0000000000110001 "
b11111111 #
1%
1'
#6290000000
0%
#6300000000
b0000000000001110 "
1%
#6310000000
b11111110 #
0%
0'
#6320000000
b11111111 #
1%
1'
#6330000000
b0000000000001111 "
#6380000000
b0000000000001101 "
#6390000000
b00011000 #
0%
0'
#6400000000
b0000000000110010 "
b11111111 #
1%
1'
#6410000000
0%
#6420000000
b0000000000001110 "
1%
#6430000000
b11111110 #
0%
0'
#6440000000
b11111111 #
1%
1'
#6450000000
b0000000000001111 "
#6500000000
b0000000000001101 "
#6510000000
b00011000 #
0%
0'
#6520000000
b0000000000110011 "
b11111111 #
1%
1'
#6530000000
0%
#6540000000
b0000000000001110 "
1%
#6550000000
b11111110 #
0%
0'
#6560000000
b11111111 #
1%
1'
#6570000000
b0000000000001111 "
#6620000000
b0000000000001101 "
#6630000000
b00011000 #
0%
0'
#6640000000
b0000000000110100 "
b11111111 #
1%
1'
#6650000000
0%
#6660000000
b0000000000001110 "
1%
#6670000000
b11111110 #
0%
0'
#6680000000
b11111111 #
1%
1'
#6690000000
b0000000000001111 "
#6740000000
b0000000000001101 "
#6750000000
b00011000 #
0%
0'
#6760000000
b0000000000110101 "
b11111111 #
1%
1'
#6770000000
0%
#6780000000
b0000000000001110 "
1%
#6790000000
b11111110 #
0%
0'
#6800000000
b11111111 #
1%
1'
#6810000000
b0000000000001111 "
#6860000000
b0000000000001101 "
#6870000000
b00011000 #
0%
0'
#6880000000
b0000000000110110 "
b11111111 #
1%
1'
#6890000000
0%
#6900000000
b0000000000001110 "
1%
#6910000000
b11111110 #
0%
0'
#6920000000
b11111111 #
1%
1'
#6930000000
b0000000000001111 "
#6980000000
b0000000000001101 "
#6990000000
b00011000 #
0%
0'
#7000000000
b0000000000110111 "
b11111111 #
1%
1'
#7010000000
0%
#7020000000
b0000000000001110 "
1%
#7030000000
b11111110 #
0%
0'
#7040000000
b11111111 #
1%
1'
#7050000000
b0000000000001111 "
#7100000000
b0000000000001101 "
#7110000000
b00011000 #
0%
0'
#7120000000
b0000000000111000 "
b11111111 #
1%
1'
#7130000000
0%
#7140000000
b0000000000001110 "
1%
#7150000000
b11111110 #
0%
0'
#7160000000
b11111111 #
1%
1'
#7170000000
b0000000000001111 "
#7220000000
b0000000000001101 "
#7230000000
b00011000 #
0%
0'
#7240000000
b0000000000111001 "
b11111111 #
1%
1'
#7250000000
0%
#7260000000
b0000000000001110 "
1%
#7270000000
b11111110 #
0%
0'
#7280000000
b11111111 #
1%
1'
#7290000000
b0000000000001111 "
#7340000000
b0000000000001101 "
#7350000000
b00011000 #
0%
0'
#7360000000
b0000000000111010 "
b11111111 #
1%
1'
#7370000000
0%
#7380000000
b0000000000001110 "
1%
#7390000000
b11111110 #
0%
0'
#7400000000
b11111111 #
1%
1'
#7410000000
b0000000000001111 "
#7460000000
b0000000000001101 "
#7470000000
b00011000 #
0%
0'
#7480000000
b0000000000111011 "
b11111111 #
1%
1'
#7490000000
0%
#7500000000
b0000000000001110 "
1%
#7510000000
b11111110 #
0%
0'
#7520000000
b11111111 #
1%
1'
#7530000000
b0000000000001111 "
#7580000000
b0000000000001101 "
#7590000000
b00011000 #
0%
0'
#7600000000
b0000000000111100 "
b11111111 #
1%
1'
#7610000000
0%
#7620000000
b0000000000001110 "
1%
#7630000000
b11111110 #
0%
0'
#7640000000
b11111111 #
1%
1'
#7650000000
b0000000000001111 "
#7700000000
b0000000000001101 "
#7710000000
b00011000 #
0%
0'
#7720000000
b0000000000111101 "
b11111111 #
1%
1'
#7730000000
0%
#7740000000
b0000000000001110 "
1%
#7750000000
b11111110 #
0%
0'
#7760000000
b11111111 #
1%
1'
#7770000000
b0000000000001111 "
#7820000000
b0000000000001101 "
#7830000000
b00011000 #
0%
0'
#7840000000
b0000000000111110 "
b11111111 #
1%
1'
#7850000000
0%
#7860000000
b0000000000001110 "
1%
#7870000000
b11111110 #
0%
0'
#7880000000
b11111111 #
1%
1'
#7890000000
b0000000000001111 "
#7940000000
b0000000000001101 "
#7950000000
b00011000 #
0%
0'
#7960000000
b0000000000111111 "
b11111111 #
1%
1'
#7970000000
0%
#7980000000
b0000000000001110 "
1%
#7990000000
b11111110 #
0%
0'
#8000000000
b11111111 #
1%
1'
#8010000000
b0000000000001111 "
#8060000000
b0000000000001101 "
#8070000000
b00011000 #
0%
0'
#8080000000
b0000000001000000 "
b11111111 #
1%
1'
#8090000000
0%
#8100000000
b0000000000001110 "
1%
#8110000000
b11111110 #
0%
0'
#8120000000
b11111111 #
1%
1'
#8130000000
b0000000000001111 "
#8180000000
b0000000000001101 "
#8190000000
b00011000 #
0%
0'
#8200000000
b0000000001000001 "
b11111111 #
1%
1'
#8210000000
0%
#8220000000
b0000000000001110 "
1%
#8230000000
b11111110 #
0%
0'
#8240000000
b11111111 #
1%
1'
#8250000000
b0000000000001111 "
#8300000000
b0000000000001101 "
#8310000000
b00011000 #
0%
0'
#8320000000
b0000000001000010 "
b11111111 #
1%
1'
#8330000000
0%
#8340000000
b0000000000001110 "
1%
#8350000000
b11111110 #
0%
0'
#8360000000
b11111111 #
1%
1'
#8370000000
b0000000000001111 "
#8420000000
b0000000000001101 "
#8430000000
b00011000 #
0%
0'
#8440000000
b0000000001000011 "
b11111111 #
1%
1'
#8450000000
0%
#8460000000
b0000000000001110 "
1%
#8470000000
b11111110 #
0%
0'
#8480000000
b11111111 #
1%
1'
#8490000000
b0000000000001111 "
#8540000000
b0000000000001101 "
#8550000000
b00011000 #
0%
0'
#8560000000
b0000000001000100 "
b11111111 #
1%
1'
#8570000000
0%
#8580000000
b0000000000001110 "
1%
#8590000000
b11111110 #
0%
0'
#8600000000
b11111111 #
1%
1'
#8610000000
b0000000000001111 "
#8660000000
b0000000000001101 "
#8670000000
b00011000 #
0%
0'
#8680000000
b0000000001000101 "
b11111111 #
1%
1'
#8690000000
0%
#8700000000
b0000000000001110 "
1%
#8710000000
b11111110 #
0%
0'
#8720000000
b11111111 #
1%
1'
#8730000000
b0000000000001111 "
#8780000000
b0000000000001101 "
#8790000000
b00011000 #
0%
0'
#8800000000
b0000000001000110 "
b11111111 #
1%
1'
#8810000000
0%
#8820000000
b0000000000001110 "
1%
#8830000000
b11111110 #
0%
0'
#8840000000
b11111111 #
1%
1'
#8850000000
b0000000000001111 "
#8900000000
b0000000000001101 "
#8910000000
b00011000 #
0%
0'
#8920000000
b0000000001000111 "
b11111111 #
1%
1'
#8930000000
0%
#8940000000
b0000000000001110 "
1%
#8950000000
b11111110 #
0%
0'
#8960000000
b11111111 #
1%
1'
#8970000000
b0000000000001111 "
#9020000000
b0000000000001101 "
#9030000000
b00011000 #
0%
0'
#9040000000
b0000000001001000 "
b11111111 #
1%
1'
#9050000000
0%
#9060000000
b0000000000001110 "
1%
#9070000000
b11111110 #
0%
0'
#9080000000
b11111111 #
1%
1'
#9090000000
b0000000000001111 "
#9140000000
b0000000000001101 "
#9150000000
b00011000 #
0%
0'
#9160000000
b0000000001001001 "
b11111111 #
1%
1'
#9170000000
0%
#9180000000
b0000000000001110 "
1%
#9190000000
b11111110 #
0%
0'
#9200000000
b11111111 #
1%
1'
#9210000000
b0000000000001111 "
#9260000000
b0000000000001101 "
#9270000000
b00011000 #
0%
0'
#9280000000
b0000000001001010 "
b11111111 #
1%
1'
#9290000000
0%
#9300000000
b0000000000001110 "
1%
#9310000000
b11111110 #
0%
0'
#9320000000
b11111111 #
1%
1'
#9330000000
b0000000000001111 "
#9380000000
b0000000000001101 "
#9390000000
b00011000 #
0%
0'
#9400000000
b0000000001001011 "
b11111111 #
1%
1'
#9410000000
0%
#9420000000
b0000000000001110 "
1%
#9430000000
b11111110 #
0%
0'
#9440000000
b11111111 #
1%
1'
#9450000000
b0000000000001111 "
#9500000000
b0000000000001101 "
#9510000000
b00011000 #
0%
0'
#9520000000
b0000000001001100 "
b11111111 #
1%
1'
#9530000000
0%
#9540000000
b0000000000001110 "
1%
#9550000000
b11111110 #
0%
0'
#9560000000
b11111111 #
1%
1'
#9570000000
b0000000000001111 "
#9620000000
b0000000000001101 "
#9630000000
b00011000 #
0%
0'
#9640000000
b0000000001001101 "
b11111111 #
1%
1'
#9650000000
0%
#9660000000
b0000000000001110 "
1%
#9670000000
b11111110 #
0%
0'
#9680000000
b11111111 #
1%
1'
#9690000000
b0000000000001111 "
#9740000000
b0000000000001101 "
#9750000000
b00011000 #
0%
0'
#9760000000
b0000000001001110 "
b11111111 #
1%
1'
#9770000000
0%
#9780000000
b0000000000001110 "
1%
#9790000000
b11111110 #
0%
0'
#9800000000
b11111111 #
1%
1'
#9810000000
b0000000000001111 "
#9860000000
b0000000000001101 "
#9870000000
b00011000 #
0%
0'
#9880000000
b0000000001001111 "
b11111111 #
1%
1'
#9890000000
0%
#9900000000
b0000000000001110 "
1%
#9910000000
b11111110 #
0%
0'
#9920000000
b11111111 #
1%
1'
#9930000000
b0000000000001111 "
#9980000000
b0000000000001101 "
#9990000000
b00011000 #
0%
0'
#10000000000
b0000000001010000 "
b11111111 #
1%
1'
#10010000000
0%
#10020000000
b0000000000001110 "
1%
#10030000000
b11111110 #
0%
0'
#10040000000
b11111111 #
1%
1'
#10050000000
b0000000000001111 "
#10100000000
b0000000000001101 "
#10110000000
b00011000 #
0%
0'
#10120000000
b0000000001010001 "
b11111111 #
1%
1'
#10130000000
0%
#10140000000
b0000000000001110 "
1%
#10150000000
b11111110 #
0%
0'
#10160000000
b11111111 #
1%
1'
#10170000000
b0000000000001111 "
#10220000000
b0000000000001101 "
#10230000000
b00011000 #
0%
0'
#10240000000
b0000000001010010 "
b11111111 #
1%
1'
#10250000000
0%
#10260000000
b0000000000001110 "
1%
#10270000000
b11111110 #
0%
0'
#10280000000
b11111111 #
1%
1'
#10290000000
b0000000000001111 "
#10340000000
b0000000000001101 "
#10350000000
b00011000 #
0%
0'
#10360000000
b0000000001010011 "
b11111111 #
1%
1'
#10370000000
0%
#10380000000
b0000000000001110 "
1%
#10390000000
b11111110 #
0%
0'
#10400000000
b11111111 #
1%
1'
#10410000000
b0000000000001111 "
#10460000000
b0000000000001101 "
#10470000000
b00011000 #
0%
0'
#10480000000
b0000000001010100 "
b11111111 #
1%
1'
#10490000000
0%
#10500000000
b0000000000001110 "
1%
#10510000000
b11111110 #
0%
0'
#10520000000
b11111111 #
1%
1'
#10530000000
b0000000000001111 "
#10580000000
b0000000000001101 "
#10590000000
b00011000 #
0%
0'
#10600000000
b0000000001010101 "
b11111111 #
1%
1'
#10610000000
0%
#10620000000
b0000000000001110 "
1%
#10630000000
b11111110 #
0%
0'
#10640000000
b11111111 #
1%
1'
#10650000000
b0000000000001111 "
#10700000000
b0000000000001101 "
#10710000000
b00011000 #
0%
0'
#10720000000
b0000000001010110 "
b11111111 #
1%
1'
#10730000000
0%
#10740000000
b0000000000001110 "
1%
#10750000000
b11111110 #
0%
0'
#10760000000
b11111111 #
1%
1'
#10770000000
b0000000000001111 "
#10820000000
b0000000000001101 "
#10830000000
b00011000 #
0%
0'
#10840000000
b0000000001010111 "
b11111111 #
1%
1'
#10850000000
0%
#10860000000
b0000000000001110 "
1%
#10870000000
b11111110 #
0%
0'
#10880000000
b11111111 #
1%
1'
#10890000000
b0000000000001111 "
#10940000000
b0000000000001101 "
#10950000000
b00011000 #
0%
0'
#10960000000
b0000000001011000 "
b11111111 #
1%
1'
#10970000000
0%
#10980000000
b0000000000001110 "
1%
#10990000000
b11111110 #
0%
0'
#11000000000
b11111111 #
1%
1'
#11010000000
b0000000000001111 "
#11060000000
b0000000000001101 "
#11070000000
b00011000 #
0%
0'
#11080000000
b0000000001011001 "
b11111111 #
1%
1'
#11090000000
0%
#11100000000
b0000000000001110 "
1%
#11110000000
b11111110 #
0%
0'
#11120000000
b11111111 #
1%
1'
#11130000000
b0000000000001111 "
#11180000000
b0000000000001101 "
#11190000000
b00011000 #
0%
0'
#11200000000
b0000000001011010 "
b11111111 #
1%
1'
#11210000000
0%
#11220000000
b0000000000001110 "
1%
#11230000000
b11111110 #
0%
0'
#11240000000
b11111111 #
1%
1'
#11250000000
b0000000000001111 "
#11300000000
b0000000000001101 "
#11310000000
b00011000 #
0%
0'
#11320000000
b0000000001011011 "
b11111111 #
1%
1'
#11330000000
0%
#11340000000
b0000000000001110 "
1%
#11350000000
b11111110 #
0%
0'
#11360000000
b11111111 #
1%
1'
#11370000000
b0000000000001111 "
#11420000000
b0000000000001101 "
#11430000000
b00011000 #
0%
0'
#11440000000
b0000000001011100 "
b11111111 #
1%
1'
#11450000000
0%
#11460000000
b0000000000001110 "
1%
#11470000000
b11111110 #
0%
0'
#11480000000
b11111111 #
1%
1'
#11490000000
b0000000000001111 "
#11540000000
b0000000000001101 "
#11550000000
b00011000 #
0%
0'
#11560000000
b0000000001011101 "
b11111111 #
1%
1'
#11570000000
0%
#11580000000
b0000000000001110 "
1%
#11590000000
b11111110 #
0%
0'
#11600000000
b11111111 #
1%
1'
#11610000000
b0000000000001111 "
#11660000000
b0000000000001101 "
#11670000000
b00011000 #
0%
0'
#11680000000
b0000000001011110 "
b11111111 #
1%
1'
#11690000000
0%
#11700000000
b0000000000001110 "
1%
#11710000000
b11111110 #
0%
0'
#11720000000
b11111111 #
1%
1'
#11730000000
b0000000000001111 "
#11780000000
b0000000000001101 "
#11790000000
b00011000 #
0%
0'
#11800000000
b0000000001011111 "
b11111111 #
1%
1'
#11810000000
0%
#11820000000
b0000000000001110 "
1%
#11830000000
b11111110 #
0%
0'
#11840000000
b11111111 #
1%
1'
#11850000000
b0000000000001111 "
#11900000000
b0000000000001101 "
#11910000000
b00011000 #
0%
0'
#11920000000
b0000000001100000 "
b11111111 #
1%
1'
#11930000000
0%
#11940000000
b0000000000001110 "
1%
#11950000000
b11111110 #
0%
0'
#11960000000
b11111111 #
1%
1'
#11970000000
b0000000000001111 "
#12020000000
b0000000000001101 "
#12030000000
b00011000 #
0%
0'
#12040000000
b0000000001100001 "
b11111111 #
1%
1'
#12050000000
0%
