boards/mimasv2/07-t80-lpddr/logiccap.vcd
$date
  Wed Jan 29 03:05:42 2020
$end
$version
  LogicCap v1.0
$end
$timescale
  1 fs
$end
$scope module signals $end
$var reg 1 ! s_calib_done $end
$var reg 1 " s_is_ram_range $end
$var reg 1 # s_ram_write $end
$var reg 1 $ s_ram_wait $end
$var reg 15 % s_ram_addr $end
$var reg 8 & s_ram_din $end
$var reg 8 ' s_ram_dout $end
$var reg 16 ( s_cpu_addr $end
$var reg 8 ) s_cpu_din $end
$var reg 8 * s_cpu_dout $end
$var reg 1 + s_cpu_mreq_n $end
$var reg 1 , s_cpu_iorq_n $end
$var reg 1 - s_cpu_rd_n $end
$var reg 1 . s_cpu_wr_n $end
$upscope $end
$enddefinitions $end
$dumpvars
#0
U!
U"
U#
U$
bUUUUUUUUUUUUUUU %
bUUUUUUUU &
bUUUUUUUU '
bUUUUUUUUUUUUUUUU (
bUUUUUUUU )
bUUUUUUUU *
U+
U,
U-
U.
#10000000
1!
0"
0#
0$
b000000000000000 %
b00000000 &
b00000000 '
b0000000000000000 (
b11111111 )
b00000000 *
1+
1,
1-
1.
#20000000
b00111110 )
0+
0-
#30000000
b11111111 )
1+
1-
#40000000
0+
#50000000
b000000000000001 %
b0000000000000001 (
1+
#60000000
b10100101 )
0+
0-
#70000000
b11111111 )
1+
1-
#80000000
b000000000000010 %
b0000000000000010 (
#90000000
b00110010 )
0+
0-
#100000000
b000000000000001 %
b0000000000000001 (
b11111111 )
1+
1-
#110000000
0+
#120000000
b000000000000011 %
b0000000000000011 (
1+
#130000000
b10011001 )
0+
0-
#140000000
b11111111 )
1+
1-
#150000000
b000000000000100 %
b0000000000000100 (
#160000000
b10000000 )
0+
0-
#170000000
b11111111 )
1+
1-
#180000000
1"
1$
b000000010011001 %
b1000000010011001 (
#190000000
1#
0$
b10100101 &
b00111111 '
b10100101 *
0+
0.
#200000000
0#
b10100101 '
1+
1.
#210000000
0"
b000000000000101 %
b0000000000000101 (
#220000000
b00000000 &
b10101111 )
b00000000 *
0+
0-
#230000000
b000000000000010 %
b0000000000000010 (
b11111111 )
1+
1-
#240000000
0+
#250000000
b000000000000110 %
b0000000000000110 (
1+
#260000000
b10100101 &
b00111010 )
b10100101 *
0+
0-
#270000000
b000000000000011 %
b0000000000000011 (
b11111111 )
1+
1-
#280000000
0+
#290000000
b000000000000111 %
b0000000000000111 (
1+
#300000000
b00000000 &
b10011001 )
b00000000 *
0+
0-
#310000000
b11111111 )
1+
1-
#320000000
b000000000001000 %
b0000000000001000 (
#330000000
b10000000 )
0+
0-
#340000000
b11111111 )
1+
1-
#350000000
1"
b000000010011001 %
b1000000010011001 (
#360000000
b10100101 )
0+
0-
#370000000
b11111111 )
1+
1-
#380000000
0"
b000000000001001 %
b0000000000001001 (
#390000000
b11010011 )
0+
0-
#400000000
b000000000000100 %
b0000000000000100 (
b11111111 )
1+
1-
#410000000
0+
#420000000
b000000000001010 %
b0000000000001010 (
1+
#430000000
b00000000 )
0+
0-
#440000000
b11111111 )
1+
1-
#450000000
1"
1$
b010010100000000 %
b1010010100000000 (
#460000000
0$
b10100101 &
b10100111 '
b10100101 *
0,
0.
#480000000
1,
1.
#490000000
0"
b000000000001011 %
b0000000000001011 (
#500000000
b00000000 &
b00011000 )
b00000000 *
0+
0-
#510000000
b000000000000101 %
b0000000000000101 (
b11111111 )
1+
1-
#520000000
0+
#530000000
b000000000001100 %
b0000000000001100 (
1+
#540000000
b11111110 )
0+
0-
#550000000
b11111111 )
1+
1-
#560000000
b000000000001101 %
b0000000000001101 (
#610000000
b000000000001011 %
b0000000000001011 (
#620000000
b00011000 )
0+
0-
#630000000
b000000000000110 %
b0000000000000110 (
b11111111 )
1+
1-
#640000000
0+
#650000000
b000000000001100 %
b0000000000001100 (
1+
#660000000
b11111110 )
0+
0-
#670000000
b11111111 )
1+
1-
#680000000
b000000000001101 %
b0000000000001101 (
#730000000
b000000000001011 %
b0000000000001011 (
#740000000
b00011000 )
0+
0-
#750000000
b000000000000111 %
b0000000000000111 (
b11111111 )
1+
1-
#760000000
0+
#770000000
b000000000001100 %
b0000000000001100 (
1+
#780000000
b11111110 )
0+
0-
#790000000
b11111111 )
1+
1-
#800000000
b000000000001101 %
b0000000000001101 (
#850000000
b000000000001011 %
b0000000000001011 (
#860000000
b00011000 )
0+
0-
#870000000
b000000000001000 %
b0000000000001000 (
b11111111 )
1+
1-
#880000000
0+
#890000000
b000000000001100 %
b0000000000001100 (
1+
#900000000
b11111110 )
0+
0-
#910000000
b11111111 )
1+
1-
#920000000
b000000000001101 %
b0000000000001101 (
#970000000
b000000000001011 %
b0000000000001011 (
#980000000
b00011000 )
0+
0-
#990000000
b000000000001001 %
b0000000000001001 (
b11111111 )
1+
1-
#1000000000
0+
#1010000000
b000000000001100 %
b0000000000001100 (
1+
#1020000000
b11111110 )
0+
0-
#1030000000
b11111111 )
1+
1-
#1040000000
b000000000001101 %
b0000000000001101 (
#1090000000
b000000000001011 %
b0000000000001011 (
#1100000000
b00011000 )
0+
0-
#1110000000
b000000000001010 %
b0000000000001010 (
b11111111 )
1+
1-
#1120000000
0+
#1130000000
b000000000001100 %
b0000000000001100 (
1+
#1140000000
b11111110 )
0+
0-
#1150000000
b11111111 )
1+
1-
#1160000000
b000000000001101 %
b0000000000001101 (
#1210000000
b000000000001011 %
b0000000000001011 (
#1220000000
b00011000 )
0+
0-
#1230000000
b11111111 )
1+
1-
#1240000000
0+
#1250000000
b000000000001100 %
b0000000000001100 (
1+
#1260000000
b11111110 )
0+
0-
#1270000000
b11111111 )
1+
1-
#1280000000
b000000000001101 %
b0000000000001101 (
#1330000000
b000000000001011 %
b0000000000001011 (
#1340000000
b00011000 )
0+
0-
#1350000000
b000000000001100 %
b0000000000001100 (
b11111111 )
1+
1-
#1360000000
0+
#1370000000
1+
#1380000000
b11111110 )
0+
0-
#1390000000
b11111111 )
1+
1-
#1400000000
b000000000001101 %
b0000000000001101 (
#1450000000
b000000000001011 %
b0000000000001011 (
#1460000000
b00011000 )
0+
0-
#1470000000
b000000000001101 %
b0000000000001101 (
b11111111 )
1+
1-
#1480000000
0+
#1490000000
b000000000001100 %
b0000000000001100 (
1+
#1500000000
b11111110 )
0+
0-
#1510000000
b11111111 )
1+
1-
#1520000000
b000000000001101 %
b0000000000001101 (
#1570000000
b000000000001011 %
b0000000000001011 (
#1580000000
b00011000 )
0+
0-
#1590000000
b000000000001110 %
b0000000000001110 (
b11111111 )
1+
1-
#1600000000
0+
#1610000000
b000000000001100 %
b0000000000001100 (
1+
#1620000000
b11111110 )
0+
0-
#1630000000
b11111111 )
1+
1-
#1640000000
b000000000001101 %
b0000000000001101 (
#1690000000
b000000000001011 %
b0000000000001011 (
#1700000000
b00011000 )
0+
0-
#1710000000
b000000000001111 %
b0000000000001111 (
b11111111 )
1+
1-
#1720000000
0+
#1730000000
b000000000001100 %
b0000000000001100 (
1+
#1740000000
b11111110 )
0+
0-
#1750000000
b11111111 )
1+
1-
#1760000000
b000000000001101 %
b0000000000001101 (
#1810000000
b000000000001011 %
b0000000000001011 (
#1820000000
b00011000 )
0+
0-
#1830000000
b000000000010000 %
b0000000000010000 (
b11111111 )
1+
1-
#1840000000
0+
#1850000000
b000000000001100 %
b0000000000001100 (
1+
#1860000000
b11111110 )
0+
0-
#1870000000
b11111111 )
1+
1-
#1880000000
b000000000001101 %
b0000000000001101 (
#1930000000
b000000000001011 %
b0000000000001011 (
#1940000000
b00011000 )
0+
0-
#1950000000
b000000000010001 %
b0000000000010001 (
b11111111 )
1+
1-
#1960000000
0+
#1970000000
b000000000001100 %
b0000000000001100 (
1+
#1980000000
b11111110 )
0+
0-
#1990000000
b11111111 )
1+
1-
#2000000000
b000000000001101 %
b0000000000001101 (
#2050000000
b000000000001011 %
b0000000000001011 (
#2060000000
b00011000 )
0+
0-
#2070000000
b000000000010010 %
b0000000000010010 (
b11111111 )
1+
1-
#2080000000
0+
#2090000000
b000000000001100 %
b0000000000001100 (
1+
#2100000000
b11111110 )
0+
0-
#2110000000
b11111111 )
1+
1-
#2120000000
b000000000001101 %
b0000000000001101 (
#2170000000
b000000000001011 %
b0000000000001011 (
#2180000000
b00011000 )
0+
0-
#2190000000
b000000000010011 %
b0000000000010011 (
b11111111 )
1+
1-
#2200000000
0+
#2210000000
b000000000001100 %
b0000000000001100 (
1+
#2220000000
b11111110 )
0+
0-
#2230000000
b11111111 )
1+
1-
#2240000000
b000000000001101 %
b0000000000001101 (
#2290000000
b000000000001011 %
b0000000000001011 (
#2300000000
b00011000 )
0+
0-
#2310000000
b000000000010100 %
b0000000000010100 (
b11111111 )
1+
1-
#2320000000
0+
#2330000000
b000000000001100 %
b0000000000001100 (
1+
#2340000000
b11111110 )
0+
0-
#2350000000
b11111111 )
1+
1-
#2360000000
b000000000001101 %
b0000000000001101 (
#2410000000
b000000000001011 %
b0000000000001011 (
#2420000000
b00011000 )
0+
0-
#2430000000
b000000000010101 %
b0000000000010101 (
b11111111 )
1+
1-
#2440000000
0+
#2450000000
b000000000001100 %
b0000000000001100 (
1+
#2460000000
b11111110 )
0+
0-
#2470000000
b11111111 )
1+
1-
#2480000000
b000000000001101 %
b0000000000001101 (
#2530000000
b000000000001011 %
b0000000000001011 (
#2540000000
b00011000 )
0+
0-
#2550000000
b000000000010110 %
b0000000000010110 (
b11111111 )
1+
1-
#2560000000
0+
#2570000000
b000000000001100 %
b0000000000001100 (
1+
#2580000000
b11111110 )
0+
0-
#2590000000
b11111111 )
1+
1-
#2600000000
b000000000001101 %
b0000000000001101 (
#2650000000
b000000000001011 %
b0000000000001011 (
#2660000000
b00011000 )
0+
0-
#2670000000
b000000000010111 %
b0000000000010111 (
b11111111 )
1+
1-
#2680000000
0+
#2690000000
b000000000001100 %
b0000000000001100 (
1+
#2700000000
b11111110 )
0+
0-
#2710000000
b11111111 )
1+
1-
#2720000000
b000000000001101 %
b0000000000001101 (
#2770000000
b000000000001011 %
b0000000000001011 (
#2780000000
b00011000 )
0+
0-
#2790000000
b000000000011000 %
b0000000000011000 (
b11111111 )
1+
1-
#2800000000
0+
#2810000000
b000000000001100 %
b0000000000001100 (
1+
#2820000000
b11111110 )
0+
0-
#2830000000
b11111111 )
1+
1-
#2840000000
b000000000001101 %
b0000000000001101 (
#2890000000
b000000000001011 %
b0000000000001011 (
#2900000000
b00011000 )
0+
0-
#2910000000
b000000000011001 %
b0000000000011001 (
b11111111 )
1+
1-
#2920000000
0+
#2930000000
b000000000001100 %
b0000000000001100 (
1+
#2940000000
b11111110 )
0+
0-
#2950000000
b11111111 )
1+
1-
#2960000000
b000000000001101 %
b0000000000001101 (
#3010000000
b000000000001011 %
b0000000000001011 (
#3020000000
b00011000 )
0+
0-
#3030000000
b000000000011010 %
b0000000000011010 (
b11111111 )
1+
1-
#3040000000
0+
#3050000000
b000000000001100 %
b0000000000001100 (
1+
#3060000000
b11111110 )
0+
0-
#3070000000
b11111111 )
1+
1-
#3080000000
b000000000001101 %
b0000000000001101 (
#3130000000
b000000000001011 %
b0000000000001011 (
#3140000000
b00011000 )
0+
0-
#3150000000
b000000000011011 %
b0000000000011011 (
b11111111 )
1+
1-
#3160000000
0+
#3170000000
b000000000001100 %
b0000000000001100 (
1+
#3180000000
b11111110 )
0+
0-
#3190000000
b11111111 )
1+
1-
#3200000000
b000000000001101 %
b0000000000001101 (
#3250000000
b000000000001011 %
b0000000000001011 (
#3260000000
b00011000 )
0+
0-
#3270000000
b000000000011100 %
b0000000000011100 (
b11111111 )
1+
1-
#3280000000
0+
#3290000000
b000000000001100 %
b0000000000001100 (
1+
#3300000000
b11111110 )
0+
0-
#3310000000
b11111111 )
1+
1-
#3320000000
b000000000001101 %
b0000000000001101 (
#3370000000
b000000000001011 %
b0000000000001011 (
#3380000000
b00011000 )
0+
0-
#3390000000
b000000000011101 %
b0000000000011101 (
b11111111 )
1+
1-
#3400000000
0+
#3410000000
b000000000001100 %
b0000000000001100 (
1+
#3420000000
b11111110 )
0+
0-
#3430000000
b11111111 )
1+
1-
#3440000000
b000000000001101 %
b0000000000001101 (
#3490000000
b000000000001011 %
b0000000000001011 (
#3500000000
b00011000 )
0+
0-
#3510000000
b000000000011110 %
b0000000000011110 (
b11111111 )
1+
1-
#3520000000
0+
#3530000000
b000000000001100 %
b0000000000001100 (
1+
#3540000000
b11111110 )
0+
0-
#3550000000
b11111111 )
1+
1-
#3560000000
b000000000001101 %
b0000000000001101 (
#3610000000
b000000000001011 %
b0000000000001011 (
#3620000000
b00011000 )
0+
0-
#3630000000
b000000000011111 %
b0000000000011111 (
b11111111 )
1+
1-
#3640000000
0+
#3650000000
b000000000001100 %
b0000000000001100 (
1+
#3660000000
b11111110 )
0+
0-
#3670000000
b11111111 )
1+
1-
#3680000000
b000000000001101 %
b0000000000001101 (
#3730000000
b000000000001011 %
b0000000000001011 (
#3740000000
b00011000 )
0+
0-
#3750000000
b000000000100000 %
b0000000000100000 (
b11111111 )
1+
1-
#3760000000
0+
#3770000000
b000000000001100 %
b0000000000001100 (
1+
#3780000000
b11111110 )
0+
0-
#3790000000
b11111111 )
1+
1-
#3800000000
b000000000001101 %
b0000000000001101 (
#3850000000
b000000000001011 %
b0000000000001011 (
#3860000000
b00011000 )
0+
0-
#3870000000
b000000000100010 %
b0000000000100010 (
b11111111 )
1-
#3880000000
b000000000001100 %
b0000000000001100 (
1+
#3890000000
b11111110 )
0+
0-
#3900000000
b11111111 )
1+
1-
#3910000000
b000000000001101 %
b0000000000001101 (
#3960000000
b000000000001011 %
b0000000000001011 (
#3970000000
b00011000 )
0+
0-
#3980000000
b000000000100011 %
b0000000000100011 (
b11111111 )
1+
1-
#3990000000
0+
#4000000000
b000000000001100 %
b0000000000001100 (
1+
#4010000000
b11111110 )
0+
0-
#4020000000
b11111111 )
1+
1-
#4030000000
b000000000001101 %
b0000000000001101 (
#4070000000
b000000000001011 %
b0000000000001011 (
#4080000000
b00011000 )
0+
0-
#4090000000
b000000000100101 %
b0000000000100101 (
b11111111 )
1+
1-
#4100000000
0+
#4110000000
b000000000001100 %
b0000000000001100 (
1+
#4120000000
b11111110 )
0+
0-
#4130000000
b11111111 )
1+
1-
#4140000000
b000000000001101 %
b0000000000001101 (
#4190000000
b000000000001011 %
b0000000000001011 (
#4200000000
b00011000 )
0+
0-
#4210000000
b000000000100110 %
b0000000000100110 (
b11111111 )
1+
1-
#4220000000
0+
#4230000000
b000000000001100 %
b0000000000001100 (
1+
#4240000000
b11111110 )
0+
0-
#4250000000
b11111111 )
1+
1-
#4260000000
b000000000001101 %
b0000000000001101 (
#4310000000
b000000000001011 %
b0000000000001011 (
#4320000000
b00011000 )
0+
0-
#4330000000
b000000000100111 %
b0000000000100111 (
b11111111 )
1+
1-
#4340000000
0+
#4350000000
b000000000001100 %
b0000000000001100 (
1+
#4360000000
b11111110 )
0+
0-
#4370000000
b11111111 )
1+
1-
#4380000000
b000000000001101 %
b0000000000001101 (
#4430000000
b000000000001011 %
b0000000000001011 (
#4440000000
b00011000 )
0+
0-
#4450000000
b000000000101000 %
b0000000000101000 (
b11111111 )
1+
1-
#4460000000
0+
#4470000000
b000000000001100 %
b0000000000001100 (
1+
#4480000000
b11111110 )
0+
0-
#4490000000
b11111111 )
1+
1-
#4500000000
b000000000001101 %
b0000000000001101 (
#4550000000
b000000000001011 %
b0000000000001011 (
#4560000000
b00011000 )
0+
0-
#4570000000
b000000000101001 %
b0000000000101001 (
b11111111 )
1+
1-
#4580000000
0+
#4590000000
b000000000001100 %
b0000000000001100 (
1+
#4600000000
b11111110 )
0+
0-
#4610000000
b11111111 )
1+
1-
#4620000000
b000000000001101 %
b0000000000001101 (
#4670000000
b000000000001011 %
b0000000000001011 (
#4680000000
b00011000 )
0+
0-
#4690000000
b000000000101010 %
b0000000000101010 (
b11111111 )
1+
1-
#4700000000
0+
#4710000000
b000000000001100 %
b0000000000001100 (
1+
#4720000000
b11111110 )
0+
0-
#4730000000
b11111111 )
1+
1-
#4740000000
b000000000001101 %
b0000000000001101 (
#4790000000
b000000000001011 %
b0000000000001011 (
#4800000000
b00011000 )
0+
0-
#4810000000
b000000000101011 %
b0000000000101011 (
b11111111 )
1+
1-
#4820000000
0+
#4830000000
b000000000001100 %
b0000000000001100 (
1+
#4840000000
b11111110 )
0+
0-
#4850000000
b11111111 )
1+
1-
#4860000000
b000000000001101 %
b0000000000001101 (
#4910000000
b000000000001011 %
b0000000000001011 (
#4920000000
b00011000 )
0+
0-
#4930000000
b000000000101100 %
b0000000000101100 (
b11111111 )
1+
1-
#4940000000
0+
#4950000000
b000000000001100 %
b0000000000001100 (
1+
#4960000000
b11111110 )
0+
0-
#4970000000
b11111111 )
1+
1-
#4980000000
b000000000001101 %
b0000000000001101 (
#5030000000
b000000000001011 %
b0000000000001011 (
#5040000000
b00011000 )
0+
0-
#5050000000
b000000000101101 %
b0000000000101101 (
b11111111 )
1+
1-
#5060000000
0+
#5070000000
b000000000001100 %
b0000000000001100 (
1+
#5080000000
b11111110 )
0+
0-
#5090000000
b11111111 )
1+
1-
#5100000000
b000000000001101 %
b0000000000001101 (
#5150000000
b000000000001011 %
b0000000000001011 (
#5160000000
b00011000 )
0+
0-
#5170000000
b000000000101110 %
b0000000000101110 (
b11111111 )
1+
1-
#5180000000
0+
#5190000000
b000000000001100 %
b0000000000001100 (
1+
#5200000000
b11111110 )
0+
0-
#5210000000
b11111111 )
1+
1-
#5220000000
b000000000001101 %
b0000000000001101 (
#5270000000
b000000000001011 %
b0000000000001011 (
#5280000000
b00011000 )
0+
0-
#5290000000
b000000000101111 %
b0000000000101111 (
b11111111 )
1+
1-
#5300000000
0+
#5310000000
b000000000001100 %
b0000000000001100 (
1+
#5320000000
b11111110 )
0+
0-
#5330000000
b11111111 )
1+
1-
#5340000000
b000000000001101 %
b0000000000001101 (
#5390000000
b000000000001011 %
b0000000000001011 (
#5400000000
b00011000 )
0+
0-
#5410000000
b000000000110000 %
b0000000000110000 (
b11111111 )
1+
1-
#5420000000
0+
#5430000000
b000000000001100 %
b0000000000001100 (
1+
#5440000000
b11111110 )
0+
0-
#5450000000
b11111111 )
1+
1-
#5460000000
b000000000001101 %
b0000000000001101 (
#5510000000
b000000000001011 %
b0000000000001011 (
#5520000000
b00011000 )
0+
0-
#5530000000
b000000000110001 %
b0000000000110001 (
b11111111 )
1+
1-
#5540000000
0+
#5550000000
b000000000001100 %
b0000000000001100 (
1+
#5560000000
b11111110 )
0+
0-
#5570000000
b11111111 )
1+
1-
#5580000000
b000000000001101 %
b0000000000001101 (
#5630000000
b000000000001011 %
b0000000000001011 (
#5640000000
b00011000 )
0+
0-
#5650000000
b000000000110010 %
b0000000000110010 (
b11111111 )
1+
1-
#5660000000
0+
#5670000000
b000000000001100 %
b0000000000001100 (
1+
#5680000000
b11111110 )
0+
0-
#5690000000
b11111111 )
1+
1-
#5700000000
b000000000001101 %
b0000000000001101 (
#5750000000
b000000000001011 %
b0000000000001011 (
#5760000000
b00011000 )
0+
0-
#5770000000
b000000000110011 %
b0000000000110011 (
b11111111 )
1+
1-
#5780000000
0+
#5790000000
b000000000001100 %
b0000000000001100 (
1+
#5800000000
b11111110 )
0+
0-
#5810000000
b11111111 )
1+
1-
#5820000000
b000000000001101 %
b0000000000001101 (
#5870000000
b000000000001011 %
b0000000000001011 (
#5880000000
b00011000 )
0+
0-
#5890000000
b000000000110100 %
b0000000000110100 (
b11111111 )
1+
1-
#5900000000
0+
#5910000000
b000000000001100 %
b0000000000001100 (
1+
#5920000000
b11111110 )
0+
0-
#5930000000
b11111111 )
1+
1-
#5940000000
b000000000001101 %
b0000000000001101 (
#5990000000
b000000000001011 %
b0000000000001011 (
#6000000000
b00011000 )
0+
0-
#6010000000
b000000000110101 %
b0000000000110101 (
b11111111 )
1+
1-
#6020000000
0+
#6030000000
b000000000001100 %
b0000000000001100 (
1+
#6040000000
b11111110 )
0+
0-
#6050000000
b11111111 )
1+
1-
#6060000000
b000000000001101 %
b0000000000001101 (
#6110000000
b000000000001011 %
b0000000000001011 (
#6120000000
b00011000 )
0+
0-
#6130000000
b000000000110110 %
b0000000000110110 (
b11111111 )
1+
1-
#6140000000
0+
#6150000000
b000000000001100 %
b0000000000001100 (
1+
#6160000000
b11111110 )
0+
0-
#6170000000
b11111111 )
1+
1-
#6180000000
b000000000001101 %
b0000000000001101 (
#6230000000
b000000000001011 %
b0000000000001011 (
#6240000000
b00011000 )
0+
0-
#6250000000
b000000000110111 %
b0000000000110111 (
b11111111 )
1+
1-
#6260000000
0+
#6270000000
b000000000001100 %
b0000000000001100 (
1+
#6280000000
b11111110 )
0+
0-
#6290000000
b11111111 )
1+
1-
#6300000000
b000000000001101 %
b0000000000001101 (
#6350000000
b000000000001011 %
b0000000000001011 (
#6360000000
b00011000 )
0+
0-
#6370000000
b000000000111000 %
b0000000000111000 (
b11111111 )
1+
1-
#6380000000
0+
#6390000000
b000000000001100 %
b0000000000001100 (
1+
#6400000000
b11111110 )
0+
0-
#6410000000
b11111111 )
1+
1-
#6420000000
b000000000001101 %
b0000000000001101 (
#6470000000
b000000000001011 %
b0000000000001011 (
#6480000000
b00011000 )
0+
0-
#6490000000
b000000000111001 %
b0000000000111001 (
b11111111 )
1+
1-
#6500000000
0+
#6510000000
b000000000001100 %
b0000000000001100 (
1+
#6520000000
b11111110 )
0+
0-
#6530000000
b11111111 )
1+
1-
#6540000000
b000000000001101 %
b0000000000001101 (
#6590000000
b000000000001011 %
b0000000000001011 (
#6600000000
b00011000 )
0+
0-
#6610000000
b000000000111010 %
b0000000000111010 (
b11111111 )
1+
1-
#6620000000
0+
#6630000000
b000000000001100 %
b0000000000001100 (
1+
#6640000000
b11111110 )
0+
0-
#6650000000
b11111111 )
1+
1-
#6660000000
b000000000001101 %
b0000000000001101 (
#6710000000
b000000000001011 %
b0000000000001011 (
#6720000000
b00011000 )
0+
0-
#6730000000
b000000000111011 %
b0000000000111011 (
b11111111 )
1+
1-
#6740000000
0+
#6750000000
b000000000001100 %
b0000000000001100 (
1+
#6760000000
b11111110 )
0+
0-
#6770000000
b11111111 )
1+
1-
#6780000000
b000000000001101 %
b0000000000001101 (
#6830000000
b000000000001011 %
b0000000000001011 (
#6840000000
b00011000 )
0+
0-
#6850000000
b000000000111100 %
b0000000000111100 (
b11111111 )
1+
1-
#6860000000
0+
#6870000000
b000000000001100 %
b0000000000001100 (
1+
#6880000000
b11111110 )
0+
0-
#6890000000
b11111111 )
1+
1-
#6900000000
b000000000001101 %
b0000000000001101 (
#6950000000
b000000000001011 %
b0000000000001011 (
#6960000000
b00011000 )
0+
0-
#6970000000
b000000000111101 %
b0000000000111101 (
b11111111 )
1+
1-
#6980000000
0+
#6990000000
b000000000001100 %
b0000000000001100 (
1+
#7000000000
b11111110 )
0+
0-
#7010000000
b11111111 )
1+
1-
#7020000000
b000000000001101 %
b0000000000001101 (
#7070000000
b000000000001011 %
b0000000000001011 (
#7080000000
b00011000 )
0+
0-
#7090000000
b000000000111110 %
b0000000000111110 (
b11111111 )
1+
1-
#7100000000
0+
#7110000000
b000000000001100 %
b0000000000001100 (
1+
#7120000000
b11111110 )
0+
0-
#7130000000
b11111111 )
1+
1-
#7140000000
b000000000001101 %
b0000000000001101 (
#7190000000
b000000000001011 %
b0000000000001011 (
#7200000000
b00011000 )
0+
0-
#7210000000
b000000000111111 %
b0000000000111111 (
b11111111 )
1+
1-
#7220000000
0+
#7230000000
b000000000001100 %
b0000000000001100 (
1+
#7240000000
b11111110 )
0+
0-
#7250000000
b11111111 )
1+
1-
#7260000000
b000000000001101 %
b0000000000001101 (
#7310000000
b000000000001011 %
b0000000000001011 (
#7320000000
b00011000 )
0+
0-
#7330000000
b000000001000000 %
b0000000001000000 (
b11111111 )
1+
1-
#7340000000
0+
#7350000000
b000000000001100 %
b0000000000001100 (
1+
#7360000000
b11111110 )
0+
0-
#7370000000
b11111111 )
1+
1-
#7380000000
b000000000001101 %
b0000000000001101 (
#7430000000
b000000000001011 %
b0000000000001011 (
#7440000000
b00011000 )
0+
0-
#7450000000
b000000001000001 %
b0000000001000001 (
b11111111 )
1+
1-
#7460000000
0+
#7470000000
b000000000001100 %
b0000000000001100 (
1+
#7480000000
b11111110 )
0+
0-
#7490000000
b11111111 )
1+
1-
#7500000000
b000000000001101 %
b0000000000001101 (
#7550000000
b000000000001011 %
b0000000000001011 (
#7560000000
b00011000 )
0+
0-
#7570000000
b000000001000010 %
b0000000001000010 (
b11111111 )
1+
1-
#7580000000
0+
#7590000000
b000000000001100 %
b0000000000001100 (
1+
#7600000000
b11111110 )
0+
0-
#7610000000
b11111111 )
1+
1-
#7620000000
b000000000000000 %
b00000000 '
b0000000000000000 (
#7640000000
b00111110 )
0+
0-
#7650000000
b11111111 )
1+
1-
#7660000000
0+
#7670000000
b000000000000001 %
b0000000000000001 (
1+
#7680000000
b10100101 )
0+
0-
#7690000000
b11111111 )
1+
1-
#7700000000
b000000000000010 %
b0000000000000010 (
#7710000000
b00110010 )
0+
0-
#7720000000
b000000000000001 %
b0000000000000001 (
b11111111 )
1+
1-
#7730000000
0+
#7740000000
b000000000000011 %
b0000000000000011 (
1+
#7750000000
b10011001 )
0+
0-
#7760000000
b11111111 )
1+
1-
#7770000000
b000000000000100 %
b0000000000000100 (
#7780000000
b10000000 )
0+
0-
#7790000000
b11111111 )
1+
1-
#7800000000
1"
1$
b000000010011001 %
b1000000010011001 (
#7810000000
1#
0$
b10100101 &
b00111111 '
b10100101 *
0+
0.
#7820000000
0#
b10100101 '
1+
1.
#7830000000
0"
b000000000000101 %
b0000000000000101 (
#7840000000
b00000000 &
b10101111 )
b00000000 *
0+
0-
#7850000000
b000000000000010 %
b0000000000000010 (
b11111111 )
1+
1-
#7860000000
0+
#7870000000
b000000000000110 %
b0000000000000110 (
1+
#7880000000
b10100101 &
b00111010 )
b10100101 *
0+
0-
#7890000000
b000000000000011 %
b0000000000000011 (
b11111111 )
1+
1-
#7900000000
0+
#7910000000
b000000000000111 %
b0000000000000111 (
1+
#7920000000
b00000000 &
b10011001 )
b00000000 *
0+
0-
#7930000000
b11111111 )
1+
1-
#7940000000
b000000000001000 %
b0000000000001000 (
#7950000000
b10000000 )
0+
0-
#7960000000
b11111111 )
1+
1-
#7970000000
1"
b000000010011001 %
b1000000010011001 (
#7980000000
b10100101 )
0+
0-
#7990000000
b11111111 )
1+
1-
#8000000000
0"
b000000000001001 %
b0000000000001001 (
#8010000000
b11010011 )
0+
0-
#8020000000
b000000000000100 %
b0000000000000100 (
b11111111 )
1+
1-
#8030000000
0+
#8040000000
b000000000001010 %
b0000000000001010 (
1+
#8050000000
b00000000 )
0+
0-
#8060000000
b11111111 )
1+
1-
#8070000000
1"
1$
b010010100000000 %
b1010010100000000 (
#8080000000
0$
b10100101 &
b10100111 '
b10100101 *
0,
0.
#8100000000
1,
1.
#8110000000
0"
b000000000001011 %
b0000000000001011 (
#8120000000
b00000000 &
b00011000 )
b00000000 *
0+
0-
#8130000000
b000000000000101 %
b0000000000000101 (
b11111111 )
1+
1-
#8140000000
0+
#8150000000
b000000000001100 %
b0000000000001100 (
1+
#8160000000
b11111110 )
0+
0-
#8170000000
b11111111 )
1+
1-
#8180000000
b000000000001101 %
b0000000000001101 (
#8230000000
b000000000001011 %
b0000000000001011 (
#8240000000
b00011000 )
0+
0-
#8250000000
b000000000000110 %
b0000000000000110 (
b11111111 )
1+
1-
#8260000000
0+
#8270000000
b000000000001100 %
b0000000000001100 (
1+
#8280000000
b11111110 )
0+
0-
#8290000000
b11111111 )
1+
1-
#8300000000
b000000000001101 %
b0000000000001101 (
#8350000000
b000000000001011 %
b0000000000001011 (
#8360000000
b00011000 )
0+
0-
#8370000000
b000000000000111 %
b0000000000000111 (
b11111111 )
1+
1-
#8380000000
0+
#8390000000
b000000000001100 %
b0000000000001100 (
1+
#8400000000
b11111110 )
0+
0-
#8410000000
b11111111 )
1+
1-
#8420000000
b000000000001101 %
b0000000000001101 (
#8470000000
b000000000001011 %
b0000000000001011 (
#8480000000
b00011000 )
0+
0-
#8490000000
b000000000001000 %
b0000000000001000 (
b11111111 )
1+
1-
#8500000000
0+
#8510000000
b000000000001100 %
b0000000000001100 (
1+
#8520000000
b11111110 )
0+
0-
#8530000000
b11111111 )
1+
1-
#8540000000
b000000000001101 %
b0000000000001101 (
#8590000000
b000000000001011 %
b0000000000001011 (
#8600000000
b00011000 )
0+
0-
#8610000000
b000000000001001 %
b0000000000001001 (
b11111111 )
1+
1-
#8620000000
0+
#8630000000
b000000000001100 %
b0000000000001100 (
1+
#8640000000
b11111110 )
0+
0-
#8650000000
b11111111 )
1+
1-
#8660000000
b000000000001101 %
b0000000000001101 (
#8710000000
b000000000001011 %
b0000000000001011 (
#8720000000
b00011000 )
0+
0-
#8730000000
b000000000001010 %
b0000000000001010 (
b11111111 )
1+
1-
#8740000000
0+
#8750000000
b000000000001100 %
b0000000000001100 (
1+
#8760000000
b11111110 )
0+
0-
#8770000000
b11111111 )
1+
1-
#8780000000
b000000000001101 %
b0000000000001101 (
#8830000000
b000000000001011 %
b0000000000001011 (
#8840000000
b00011000 )
0+
0-
#8850000000
b11111111 )
1+
1-
#8860000000
0+
#8870000000
b000000000001100 %
b0000000000001100 (
1+
#8880000000
b11111110 )
0+
0-
#8890000000
b11111111 )
1+
1-
#8900000000
b000000000001101 %
b0000000000001101 (
#8950000000
b000000000001011 %
b0000000000001011 (
#8960000000
b00011000 )
0+
0-
#8970000000
b000000000001100 %
b0000000000001100 (
b11111111 )
1+
1-
#8980000000
0+
#8990000000
1+
#9000000000
b11111110 )
0+
0-
#9010000000
b11111111 )
1+
1-
#9020000000
b000000000001101 %
b0000000000001101 (
