boards/mimasv2/07-t80-lpddr/logiccap.vcd
$date
  Sat Feb 15 22:41:53 2020
$end
$version
  LogicCap v1.0
$end
$timescale
  1 fs
$end
$scope module signals $end
$var reg 16 ! s_cpu_addr $end
$var reg 8 " s_cpu_din $end
$var reg 8 # s_cpu_dout $end
$var reg 1 $ s_cpu_mreq_n $end
$var reg 1 % s_cpu_iorq_n $end
$var reg 1 & s_cpu_rd_n $end
$var reg 1 ' s_cpu_wr_n $end
$var reg 1 ( s_cpu_wait_n $end
$var reg 1 ) s_ram_wr $end
$var reg 1 * s_ram_wr_pulse $end
$var reg 1 + s_ram_rd $end
$var reg 1 , s_ram_rd_pulse $end
$var reg 1 - s_clken_cpu $end
$upscope $end
$enddefinitions $end
$dumpvars
#0
bUUUUUUUUUUUUUUUU !
bUUUUUUUU "
bUUUUUUUU #
U$
U%
U&
U'
U(
U)
U*
U+
U,
U-
#10000000
b0000000000000000 !
b11111111 "
b00000000 #
1$
1%
1&
1'
1(
0)
0*
0+
0,
0-
#170000000
1-
#180000000
0-
#620000000
1-
#630000000
b00111110 "
0$
0&
0-
#1070000000
1-
#1080000000
b11111111 "
1$
1&
0-
#1520000000
1-
#1530000000
0$
0-
#1970000000
1-
#1980000000
b0000000000000001 !
1$
0-
#2420000000
1-
#2430000000
b10100110 "
0$
0&
0-
#2870000000
1-
#2880000000
b11111111 "
1$
1&
0-
#3320000000
1-
#3330000000
b0000000000000010 !
0-
#3770000000
1-
#3780000000
b00110010 "
0$
0&
0-
#4220000000
1-
#4230000000
b0000000000000001 !
b11111111 "
1$
1&
0-
#4670000000
1-
#4680000000
0$
0-
#5120000000
1-
#5130000000
b0000000000000011 !
1$
0-
#5570000000
1-
#5580000000
0$
0&
0-
#6020000000
1-
#6030000000
1$
1&
0-
#6470000000
1-
#6480000000
b0000000000000100 !
0-
#6920000000
1-
#6930000000
0$
0&
0-
#7370000000
1-
#7380000000
1$
1&
0-
#7820000000
1-
#7830000000
b1111111111111111 !
0-
#8270000000
1-
#8280000000
b10100110 #
0$
0'
0(
1)
1*
0-
#8290000000
0*
#8300000000
1(
#8720000000
1-
#8730000000
1$
1'
0)
0-
#9170000000
1-
#9180000000
b0000000000000101 !
0-
#9620000000
1-
#9630000000
b00111010 "
b00000000 #
0$
0&
0-
#10070000000
1-
#10080000000
b0000000000000010 !
b11111111 "
1$
1&
0-
#10520000000
1-
#10530000000
0$
0-
#10970000000
1-
#10980000000
b0000000000000110 !
1$
0-
#11420000000
1-
#11430000000
b00000000 "
0$
0&
0-
#11870000000
1-
#11880000000
b11111111 "
1$
1&
0-
#12320000000
1-
#12330000000
b0000000000000111 !
0-
#12770000000
1-
#12780000000
b01000000 "
0$
0&
0-
#13220000000
1-
#13230000000
b11111111 "
1$
1&
0-
#13670000000
1-
#13680000000
b0100000000000000 !
0-
#14120000000
1-
#14130000000
b00000000 "
0$
0&
0(
1+
1,
0-
#14140000000
0,
#14340000000
b01000000 "
1(
#14570000000
1-
#14580000000
b11111111 "
1$
1&
0+
0-
#15020000000
1-
#15030000000
b0000000000001000 !
0-
#15470000000
1-
#15480000000
b00111010 "
0$
0&
0-
#15920000000
1-
#15930000000
b0000000000000011 !
b11111111 "
1$
1&
0-
#16370000000
1-
#16380000000
0$
0-
#16820000000
1-
#16830000000
b0000000000001001 !
1$
0-
#17270000000
1-
#17280000000
0$
0&
0-
#17720000000
1-
#17730000000
1$
1&
0-
#18170000000
1-
#18180000000
b0000000000001010 !
0-
#18620000000
1-
#18630000000
0$
0&
0-
#19070000000
1-
#19080000000
1$
1&
0-
#19520000000
1-
#19530000000
b1111111111111111 !
0-
#19970000000
1-
#19980000000
b01000000 "
0$
0&
0(
1+
1,
0-
#19990000000
0,
#20190000000
b10100110 "
1(
#20420000000
1-
#20430000000
b11111111 "
1$
1&
0+
0-
#20870000000
1-
#20880000000
b0000000000001011 !
0-
#21320000000
1-
#21330000000
b11010011 "
0$
0&
0-
#21770000000
1-
#21780000000
b0000000000000100 !
b11111111 "
1$
1&
0-
#22220000000
1-
#22230000000
0$
0-
#22670000000
1-
#22680000000
b0000000000001100 !
1$
0-
#23120000000
1-
#23130000000
b00000000 "
0$
0&
0-
#23570000000
1-
#23580000000
b11111111 "
1$
1&
0-
#24020000000
1-
#24030000000
b1010011000000000 !
0-
#24470000000
1-
#24480000000
b10100110 #
0%
0'
0-
#24920000000
1-
#24930000000
0-
#25370000000
1-
#25380000000
1%
1'
0-
#25820000000
1-
#25830000000
b0000000000001101 !
0-
#26270000000
1-
#26280000000
b00100001 "
b00000000 #
0$
0&
0-
#26720000000
1-
#26730000000
b0000000000000101 !
b11111111 "
1$
1&
0-
#27170000000
1-
#27180000000
0$
0-
#27620000000
1-
#27630000000
b0000000000001110 !
1$
0-
#28070000000
1-
#28080000000
b00011101 "
0$
0&
0-
#28520000000
1-
#28530000000
b11111111 "
1$
1&
0-
#28970000000
1-
#28980000000
b0000000000001111 !
0-
#29420000000
1-
#29430000000
b00000000 "
0$
0&
0-
#29870000000
1-
#29880000000
b11111111 "
1$
1&
0-
#30320000000
1-
#30330000000
b0000000000010000 !
0-
#30770000000
1-
#30780000000
b00010001 "
0$
0&
0-
#31220000000
1-
#31230000000
b0000000000000110 !
b11111111 "
1$
1&
0-
#31670000000
1-
#31680000000
0$
0-
#32120000000
1-
#32130000000
b0000000000010001 !
1$
0-
#32570000000
1-
#32580000000
b11110000 "
0$
0&
0-
#33020000000
1-
#33030000000
b11111111 "
1$
1&
0-
#33470000000
1-
#33480000000
b0000000000010010 !
0-
#33920000000
1-
#33930000000
0$
0&
0-
#34370000000
1-
#34380000000
1$
1&
0-
#34820000000
1-
#34830000000
b0000000000010011 !
0-
#35270000000
1-
#35280000000
b00000001 "
0$
0&
0-
#35720000000
1-
#35730000000
b0000000000000111 !
b11111111 "
1$
1&
0-
#36170000000
1-
#36180000000
0$
0-
#36620000000
1-
#36630000000
b0000000000010100 !
1$
0-
#37070000000
1-
#37080000000
b00000111 "
0$
0&
0-
#37520000000
1-
#37530000000
b11111111 "
1$
1&
0-
#37970000000
1-
#37980000000
b0000000000010101 !
0-
#38420000000
1-
#38430000000
b00000000 "
0$
0&
0-
#38870000000
1-
#38880000000
b11111111 "
1$
1&
0-
#39320000000
1-
#39330000000
b0000000000010110 !
0-
#39770000000
1-
#39780000000
b11101101 "
0$
0&
0-
#40220000000
1-
#40230000000
b0000000000001000 !
b11111111 "
1$
1&
0-
#40670000000
1-
#40680000000
0$
0-
