boards/mimasv2/07-t80-lpddr/logiccap.vcd
$date
  Thu Jan 30 05:55:29 2020
$end
$version
  LogicCap v1.0
$end
$timescale
  1 fs
$end
$scope module signals $end
$var reg 16 ! s_pc $end
$var reg 16 " s_cpu_addr $end
$var reg 8 # s_cpu_din $end
$var reg 8 $ s_cpu_dout $end
$var reg 1 % s_cpu_mreq_n $end
$var reg 1 & s_cpu_iorq_n $end
$var reg 1 ' s_cpu_rd_n $end
$var reg 1 ( s_cpu_wr_n $end
$var reg 1 ) s_cpu_wait_n $end
$var reg 1 * s_ram_write_ready $end
$var reg 1 + s_ram_write_pulse $end
$upscope $end
$enddefinitions $end
$dumpvars
#0
bUUUUUUUUUUUUUUUU !
bUUUUUUUUUUUUUUUU "
bUUUUUUUU #
bUUUUUUUU $
U%
U&
U'
U(
U)
U*
U+
#10000000
b1111111111111111 !
b0000000000000000 "
b11111111 #
b00000000 $
1%
1&
1'
1(
1)
0*
0+
#20000000
b0000000000000000 !
#30000000
b00111110 #
0%
0'
#40000000
b11111111 #
1%
1'
#50000000
0%
#60000000
b0000000000000001 "
1%
#70000000
b10100110 #
0%
0'
#80000000
b11111111 #
1%
1'
#90000000
b0000000000000010 !
b0000000000000010 "
#100000000
b00110010 #
0%
0'
#110000000
b0000000000000001 "
b11111111 #
1%
1'
#120000000
0%
#130000000
b0000000000000011 "
1%
#140000000
0%
0'
#150000000
1%
1'
#160000000
b0000000000000100 "
#170000000
0%
0'
#180000000
1%
1'
#190000000
b1111111111111111 "
0)
#200000000
b10100110 $
0%
0(
#300000000
1)
1*
1+
#310000000
1%
1(
0*
0+
#320000000
b0000000000000101 !
b0000000000000101 "
#330000000
b00111010 #
b00000000 $
0%
0'
#340000000
b0000000000000010 "
b11111111 #
1%
1'
#350000000
0%
#360000000
b0000000000000110 "
1%
#370000000
b00000000 #
0%
0'
#380000000
b11111111 #
1%
1'
#390000000
b0000000000000111 "
#400000000
b01000000 #
0%
0'
#410000000
b11111111 #
1%
1'
#420000000
b0100000000000000 "
0)
#430000000
b10100110 #
0%
0'
#530000000
b11000011 #
1)
#540000000
b11111111 #
1%
1'
#550000000
b0000000000001000 !
b0000000000001000 "
#560000000
b00111010 #
0%
0'
#570000000
b0000000000000011 "
b11111111 #
1%
1'
#580000000
0%
#590000000
b0000000000001001 "
1%
#600000000
0%
0'
#610000000
1%
1'
#620000000
b0000000000001010 "
#630000000
0%
0'
#640000000
1%
1'
#650000000
b1111111111111111 "
0)
#660000000
b11000011 #
0%
0'
#750000000
b10100110 #
1)
#760000000
b11111111 #
1%
1'
#770000000
b0000000000001011 !
b0000000000001011 "
#780000000
b11010011 #
0%
0'
#790000000
b0000000000000100 "
b11111111 #
1%
1'
#800000000
0%
#810000000
b0000000000001100 "
1%
#820000000
b00000000 #
0%
0'
#830000000
b11111111 #
1%
1'
#840000000
b1010011000000000 "
0)
#850000000
b10100110 $
0&
0(
#950000000
1)
#960000000
1&
1(
#970000000
b0000000000001101 !
b0000000000001101 "
#980000000
b00011000 #
b00000000 $
0%
0'
#990000000
b0000000000000101 "
b11111111 #
1%
1'
#1000000000
0%
#1010000000
b0000000000001110 "
1%
#1020000000
b11111110 #
0%
0'
#1030000000
b11111111 #
1%
1'
#1040000000
b0000000000001111 "
#1090000000
b0000000000001101 "
#1100000000
b00011000 #
0%
0'
#1110000000
b0000000000000110 "
b11111111 #
1%
1'
#1120000000
0%
#1130000000
b0000000000001110 "
1%
#1140000000
b11111110 #
0%
0'
#1150000000
b11111111 #
1%
1'
#1160000000
b0000000000001111 "
#1210000000
b0000000000001101 "
#1220000000
b00011000 #
0%
0'
#1230000000
b0000000000000111 "
b11111111 #
1%
1'
#1240000000
0%
#1250000000
b0000000000001110 "
1%
#1260000000
b11111110 #
0%
0'
#1270000000
b11111111 #
1%
1'
#1280000000
b0000000000001111 "
#1330000000
b0000000000001101 "
#1340000000
b00011000 #
0%
0'
#1350000000
b0000000000001000 "
b11111111 #
1%
1'
#1360000000
0%
#1370000000
b0000000000001110 "
1%
#1380000000
b11111110 #
0%
0'
#1390000000
b11111111 #
1%
1'
#1400000000
b0000000000001111 "
#1450000000
b0000000000001101 "
#1460000000
b00011000 #
0%
0'
#1470000000
b0000000000001001 "
b11111111 #
1%
1'
#1480000000
0%
#1490000000
b0000000000001110 "
1%
#1500000000
b11111110 #
0%
0'
#1510000000
b11111111 #
1%
1'
#1520000000
b0000000000001111 "
#1570000000
b0000000000001101 "
#1580000000
b00011000 #
0%
0'
#1590000000
b0000000000001010 "
b11111111 #
1%
1'
#1600000000
0%
#1610000000
b0000000000001110 "
1%
#1620000000
b11111110 #
0%
0'
#1630000000
b11111111 #
1%
1'
#1640000000
b0000000000001111 "
#1690000000
b0000000000001101 "
#1700000000
b00011000 #
0%
0'
#1710000000
b0000000000001011 "
b11111111 #
1%
1'
#1720000000
0%
#1730000000
b0000000000001110 "
1%
#1740000000
b11111110 #
0%
0'
#1750000000
b11111111 #
1%
1'
#1760000000
b0000000000001111 "
#1810000000
b0000000000001101 "
#1820000000
b00011000 #
0%
0'
#1830000000
b0000000000001100 "
b11111111 #
1%
1'
#1840000000
0%
#1850000000
b0000000000001110 "
1%
#1860000000
b11111110 #
0%
0'
#1870000000
b11111111 #
1%
1'
#1880000000
b0000000000001111 "
#1930000000
b0000000000001101 "
#1940000000
b00011000 #
0%
0'
#1950000000
b11111111 #
1%
1'
#1960000000
0%
#1970000000
b0000000000001110 "
1%
#1980000000
b11111110 #
0%
0'
#1990000000
b11111111 #
1%
1'
#2000000000
b0000000000001111 "
#2050000000
b0000000000001101 "
#2060000000
b00011000 #
0%
0'
#2070000000
b0000000000001110 "
b11111111 #
1%
1'
#2080000000
0%
#2090000000
1%
#2100000000
b11111110 #
0%
0'
#2110000000
b11111111 #
1%
1'
#2120000000
b0000000000001111 "
#2170000000
b0000000000001101 "
#2180000000
b00011000 #
0%
0'
#2190000000
b0000000000001111 "
b11111111 #
1%
1'
#2200000000
0%
#2210000000
b0000000000001110 "
1%
#2220000000
b11111110 #
0%
0'
#2230000000
b11111111 #
1%
1'
#2240000000
b0000000000001111 "
#2290000000
b0000000000001101 "
#2300000000
b00011000 #
0%
0'
#2310000000
b0000000000010000 "
b11111111 #
1%
1'
#2320000000
0%
#2330000000
b0000000000001110 "
1%
#2340000000
b11111110 #
0%
0'
#2350000000
b11111111 #
1%
1'
#2360000000
b0000000000001111 "
#2410000000
b0000000000001101 "
#2420000000
b00011000 #
0%
0'
#2430000000
b0000000000010001 "
b11111111 #
1%
1'
#2440000000
0%
#2450000000
b0000000000001110 "
1%
#2460000000
b11111110 #
0%
0'
#2470000000
b11111111 #
1%
1'
#2480000000
b0000000000001111 "
#2530000000
b0000000000001101 "
#2540000000
b00011000 #
0%
0'
#2550000000
b0000000000010010 "
b11111111 #
1%
1'
#2560000000
0%
#2570000000
b0000000000001110 "
1%
#2580000000
b11111110 #
0%
0'
#2590000000
b11111111 #
1%
1'
#2600000000
b0000000000001111 "
#2650000000
b0000000000001101 "
#2660000000
b00011000 #
0%
0'
#2670000000
b0000000000010011 "
b11111111 #
1%
1'
#2680000000
0%
#2690000000
b0000000000001110 "
1%
#2700000000
b11111110 #
0%
0'
#2710000000
b11111111 #
1%
1'
#2720000000
b0000000000001111 "
#2770000000
b0000000000001101 "
#2780000000
b00011000 #
0%
0'
#2790000000
b0000000000010100 "
b11111111 #
1%
1'
#2800000000
0%
#2810000000
b0000000000001110 "
1%
#2820000000
b11111110 #
0%
0'
#2830000000
b11111111 #
1%
1'
#2840000000
b0000000000001111 "
#2890000000
b0000000000001101 "
#2900000000
b00011000 #
0%
0'
#2910000000
b0000000000010101 "
b11111111 #
1%
1'
#2920000000
0%
#2930000000
b0000000000001110 "
1%
#2940000000
b11111110 #
0%
0'
#2950000000
b11111111 #
1%
1'
#2960000000
b0000000000001111 "
#3010000000
b0000000000001101 "
#3020000000
b00011000 #
0%
0'
#3030000000
b0000000000010110 "
b11111111 #
1%
1'
#3040000000
0%
#3050000000
b0000000000001110 "
1%
#3060000000
b11111110 #
0%
0'
#3070000000
b11111111 #
1%
1'
#3080000000
b0000000000001111 "
#3130000000
b0000000000001101 "
#3140000000
b00011000 #
0%
0'
#3150000000
b0000000000010111 "
b11111111 #
1%
1'
#3160000000
0%
#3170000000
b0000000000001110 "
1%
#3180000000
b11111110 #
0%
0'
#3190000000
b11111111 #
1%
1'
#3200000000
b0000000000001111 "
#3250000000
b0000000000001101 "
#3260000000
b00011000 #
0%
0'
#3270000000
b0000000000011000 "
b11111111 #
1%
1'
#3280000000
0%
#3290000000
b0000000000001110 "
1%
#3300000000
b11111110 #
0%
0'
#3310000000
b11111111 #
1%
1'
#3320000000
b0000000000001111 "
#3370000000
b0000000000001101 "
#3380000000
b00011000 #
0%
0'
#3390000000
b0000000000011001 "
b11111111 #
1%
1'
#3400000000
0%
#3410000000
b0000000000001110 "
1%
#3420000000
b11111110 #
0%
0'
#3430000000
b11111111 #
1%
1'
#3440000000
b0000000000001111 "
#3490000000
b0000000000001101 "
#3500000000
b00011000 #
0%
0'
#3510000000
b0000000000011010 "
b11111111 #
1%
1'
#3520000000
0%
#3530000000
b0000000000001110 "
1%
#3540000000
b11111110 #
0%
0'
#3550000000
b11111111 #
1%
1'
#3560000000
b0000000000001111 "
#3610000000
b0000000000001101 "
#3620000000
b00011000 #
0%
0'
#3630000000
b0000000000011011 "
b11111111 #
1%
1'
#3640000000
0%
#3650000000
b0000000000001110 "
1%
#3660000000
b11111110 #
0%
0'
#3670000000
b11111111 #
1%
1'
#3680000000
b0000000000001111 "
#3730000000
b0000000000001101 "
#3740000000
b00011000 #
0%
0'
#3750000000
b0000000000011100 "
b11111111 #
1%
1'
#3760000000
0%
#3770000000
b0000000000001110 "
1%
#3780000000
b11111110 #
0%
0'
#3790000000
b11111111 #
1%
1'
#3800000000
b0000000000001111 "
#3850000000
b0000000000001101 "
#3860000000
b00011000 #
0%
0'
#3870000000
b0000000000011101 "
b11111111 #
1%
1'
#3880000000
0%
#3890000000
b0000000000001110 "
1%
#3900000000
b11111110 #
0%
0'
#3910000000
b11111111 #
1%
1'
#3920000000
b0000000000001111 "
#3970000000
b0000000000001101 "
#3980000000
b00011000 #
0%
0'
#3990000000
b0000000000011110 "
b11111111 #
1%
1'
#4000000000
0%
#4010000000
b0000000000001110 "
1%
#4020000000
b11111110 #
0%
0'
#4030000000
b11111111 #
1%
1'
#4040000000
b0000000000001111 "
#4090000000
b0000000000001101 "
#4100000000
b00011000 #
0%
0'
#4110000000
b0000000000011111 "
b11111111 #
1%
1'
#4120000000
0%
#4130000000
b0000000000001110 "
1%
#4140000000
b11111110 #
0%
0'
#4150000000
b11111111 #
1%
1'
#4160000000
b0000000000001111 "
#4210000000
b0000000000001101 "
#4220000000
b00011000 #
0%
0'
#4230000000
b0000000000100000 "
b11111111 #
1%
1'
#4240000000
0%
#4250000000
b0000000000001110 "
1%
#4260000000
b11111110 #
0%
0'
#4270000000
b11111111 #
1%
1'
#4280000000
b0000000000001111 "
#4330000000
b0000000000001101 "
#4340000000
b00011000 #
0%
0'
#4350000000
b0000000000100001 "
b11111111 #
1%
1'
#4360000000
0%
#4370000000
b0000000000001110 "
1%
#4380000000
b11111110 #
0%
0'
#4390000000
b11111111 #
1%
1'
#4400000000
b0000000000001111 "
#4450000000
b0000000000001101 "
#4460000000
b00011000 #
0%
0'
#4470000000
b0000000000100010 "
b11111111 #
1%
1'
#4480000000
0%
#4490000000
b0000000000001110 "
1%
#4500000000
b11111110 #
0%
0'
#4510000000
b11111111 #
1%
1'
#4520000000
b0000000000001111 "
#4570000000
b0000000000001101 "
#4580000000
b00011000 #
0%
0'
#4590000000
b0000000000100011 "
b11111111 #
1%
1'
#4600000000
0%
#4610000000
b0000000000001110 "
1%
#4620000000
b11111110 #
0%
0'
#4630000000
b11111111 #
1%
1'
#4640000000
b0000000000001111 "
#4690000000
b0000000000001101 "
#4700000000
b00011000 #
0%
0'
#4710000000
b0000000000100100 "
b11111111 #
1%
1'
#4720000000
0%
#4730000000
b0000000000001110 "
1%
#4740000000
b11111110 #
0%
0'
#4750000000
b11111111 #
1%
1'
#4760000000
b0000000000001111 "
#4810000000
b0000000000001101 "
#4820000000
b00011000 #
0%
0'
#4830000000
b0000000000100101 "
b11111111 #
1%
1'
#4840000000
0%
#4850000000
b0000000000001110 "
1%
#4860000000
b11111110 #
0%
0'
#4870000000
b11111111 #
1%
1'
#4880000000
b0000000000001111 "
#4930000000
b0000000000001101 "
#4940000000
b00011000 #
0%
0'
#4950000000
b0000000000100110 "
b11111111 #
1%
1'
#4960000000
0%
#4970000000
b0000000000001110 "
1%
#4980000000
b11111110 #
0%
0'
#4990000000
b11111111 #
1%
1'
#5000000000
b0000000000001111 "
#5050000000
b0000000000001101 "
#5060000000
b00011000 #
0%
0'
#5070000000
b0000000000100111 "
b11111111 #
1%
1'
#5080000000
0%
#5090000000
b0000000000001110 "
1%
#5100000000
b11111110 #
0%
0'
#5110000000
b11111111 #
1%
1'
#5120000000
b0000000000001111 "
#5170000000
b0000000000001101 "
#5180000000
b00011000 #
0%
0'
#5190000000
b0000000000101000 "
b11111111 #
1%
1'
#5200000000
0%
#5210000000
b0000000000001110 "
1%
#5220000000
b11111110 #
0%
0'
#5230000000
b11111111 #
1%
1'
#5240000000
b0000000000001111 "
#5290000000
b0000000000001101 "
#5300000000
b00011000 #
0%
0'
#5310000000
b0000000000101001 "
b11111111 #
1%
1'
#5320000000
0%
#5330000000
b0000000000001110 "
1%
#5340000000
b11111110 #
0%
0'
#5350000000
b11111111 #
1%
1'
#5360000000
b0000000000001111 "
#5410000000
b0000000000001101 "
#5420000000
b00011000 #
0%
0'
#5430000000
b0000000000101010 "
b11111111 #
1%
1'
#5440000000
0%
#5450000000
b0000000000001110 "
1%
#5460000000
b11111110 #
0%
0'
#5470000000
b11111111 #
1%
1'
#5480000000
b0000000000001111 "
#5530000000
b0000000000001101 "
#5540000000
b00011000 #
0%
0'
#5550000000
b0000000000101011 "
b11111111 #
1%
1'
#5560000000
0%
#5570000000
b0000000000001110 "
1%
#5580000000
b11111110 #
0%
0'
#5590000000
b11111111 #
1%
1'
#5600000000
b0000000000001111 "
#5650000000
b0000000000001101 "
#5660000000
b00011000 #
0%
0'
#5670000000
b0000000000101100 "
b11111111 #
1%
1'
#5680000000
0%
#5690000000
b0000000000001110 "
1%
#5700000000
b11111110 #
0%
0'
#5710000000
b11111111 #
1%
1'
#5720000000
b0000000000001111 "
#5770000000
b0000000000001101 "
#5780000000
b00011000 #
0%
0'
#5790000000
b0000000000101101 "
b11111111 #
1%
1'
#5800000000
0%
#5810000000
b0000000000001110 "
1%
#5820000000
b11111110 #
0%
0'
#5830000000
b11111111 #
1%
1'
#5840000000
b0000000000001111 "
#5890000000
b0000000000001101 "
#5900000000
b00011000 #
0%
0'
#5910000000
b0000000000101110 "
b11111111 #
1%
1'
#5920000000
0%
#5930000000
b0000000000001110 "
1%
#5940000000
b11111110 #
0%
0'
#5950000000
b11111111 #
1%
1'
#5960000000
b0000000000001111 "
#6010000000
b0000000000001101 "
#6020000000
b00011000 #
0%
0'
#6030000000
b0000000000101111 "
b11111111 #
1%
1'
#6040000000
0%
#6050000000
b0000000000001110 "
1%
#6060000000
b11111110 #
0%
0'
#6070000000
b11111111 #
1%
1'
#6080000000
b0000000000001111 "
#6130000000
b0000000000001101 "
#6140000000
b00011000 #
0%
0'
#6150000000
b0000000000110000 "
b11111111 #
1%
1'
#6160000000
0%
#6170000000
b0000000000001110 "
1%
#6180000000
b11111110 #
0%
0'
#6190000000
b11111111 #
1%
1'
#6200000000
b0000000000001111 "
#6250000000
b0000000000001101 "
#6260000000
b00011000 #
0%
0'
#6270000000
b0000000000110001 "
b11111111 #
1%
1'
#6280000000
0%
#6290000000
b0000000000001110 "
1%
#6300000000
b11111110 #
0%
0'
#6310000000
b11111111 #
1%
1'
#6320000000
b0000000000001111 "
#6370000000
b0000000000001101 "
#6380000000
b00011000 #
0%
0'
#6390000000
b0000000000110010 "
b11111111 #
1%
1'
#6400000000
0%
#6410000000
b0000000000001110 "
1%
#6420000000
b11111110 #
0%
0'
#6430000000
b11111111 #
1%
1'
#6440000000
b0000000000001111 "
#6490000000
b0000000000001101 "
#6500000000
b00011000 #
0%
0'
#6510000000
b0000000000110011 "
b11111111 #
1%
1'
#6520000000
0%
#6530000000
b0000000000001110 "
1%
#6540000000
b11111110 #
0%
0'
#6550000000
b11111111 #
1%
1'
#6560000000
b0000000000001111 "
#6610000000
b0000000000001101 "
#6620000000
b00011000 #
0%
0'
#6630000000
b0000000000110100 "
b11111111 #
1%
1'
#6640000000
0%
#6650000000
b0000000000001110 "
1%
#6660000000
b11111110 #
0%
0'
#6670000000
b11111111 #
1%
1'
#6680000000
b0000000000001111 "
#6730000000
b0000000000001101 "
#6740000000
b00011000 #
0%
0'
#6750000000
b0000000000110101 "
b11111111 #
1%
1'
#6760000000
0%
#6770000000
b0000000000001110 "
1%
#6780000000
b11111110 #
0%
0'
#6790000000
b11111111 #
1%
1'
#6800000000
b0000000000001111 "
#6850000000
b0000000000001101 "
#6860000000
b00011000 #
0%
0'
#6870000000
b0000000000110110 "
b11111111 #
1%
1'
#6880000000
0%
#6890000000
b0000000000001110 "
1%
#6900000000
b11111110 #
0%
0'
#6910000000
b11111111 #
1%
1'
#6920000000
b0000000000001111 "
#6970000000
b0000000000001101 "
#6980000000
b00011000 #
0%
0'
#6990000000
b0000000000110111 "
b11111111 #
1%
1'
#7000000000
0%
#7010000000
b0000000000001110 "
1%
#7020000000
b11111110 #
0%
0'
#7030000000
b11111111 #
1%
1'
#7040000000
b0000000000001111 "
#7090000000
b0000000000001101 "
#7100000000
b00011000 #
0%
0'
#7110000000
b0000000000111000 "
b11111111 #
1%
1'
#7120000000
0%
#7130000000
b0000000000001110 "
1%
#7140000000
b11111110 #
0%
0'
#7150000000
b11111111 #
1%
1'
#7160000000
b0000000000001111 "
#7210000000
b0000000000001101 "
#7220000000
b00011000 #
0%
0'
#7230000000
b0000000000111001 "
b11111111 #
1%
1'
#7240000000
0%
#7250000000
b0000000000001110 "
1%
#7260000000
b11111110 #
0%
0'
#7270000000
b11111111 #
1%
1'
#7280000000
b0000000000001111 "
#7330000000
b0000000000001101 "
#7340000000
b00011000 #
0%
0'
#7350000000
b0000000000111010 "
b11111111 #
1%
1'
#7360000000
0%
#7370000000
b0000000000001110 "
1%
#7380000000
b11111110 #
0%
0'
#7390000000
b11111111 #
1%
1'
#7400000000
b0000000000001111 "
#7450000000
b0000000000001101 "
#7460000000
b00011000 #
0%
0'
#7470000000
b0000000000111011 "
b11111111 #
1%
1'
#7480000000
0%
#7490000000
b0000000000001110 "
1%
#7500000000
b11111110 #
0%
0'
#7510000000
b11111111 #
1%
1'
#7520000000
b0000000000001111 "
#7570000000
b0000000000001101 "
#7580000000
b00011000 #
0%
0'
#7590000000
b0000000000111100 "
b11111111 #
1%
1'
#7600000000
0%
#7610000000
b0000000000001110 "
1%
#7620000000
b11111110 #
0%
0'
#7630000000
b11111111 #
1%
1'
#7640000000
b0000000000001111 "
#7690000000
b0000000000001101 "
#7700000000
b00011000 #
0%
0'
#7710000000
b0000000000111101 "
b11111111 #
1%
1'
#7720000000
0%
#7730000000
b0000000000001110 "
1%
#7740000000
b11111110 #
0%
0'
#7750000000
b11111111 #
1%
1'
#7760000000
b0000000000001111 "
#7810000000
b0000000000001101 "
#7820000000
b00011000 #
0%
0'
#7830000000
b0000000000111110 "
b11111111 #
1%
1'
#7840000000
0%
#7850000000
b0000000000001110 "
1%
#7860000000
b11111110 #
0%
0'
#7870000000
b11111111 #
1%
1'
#7880000000
b0000000000001111 "
#7930000000
b0000000000001101 "
#7940000000
b00011000 #
0%
0'
#7950000000
b0000000000111111 "
b11111111 #
1%
1'
#7960000000
0%
#7970000000
b0000000000001110 "
1%
#7980000000
b11111110 #
0%
0'
#7990000000
b11111111 #
1%
1'
#8000000000
b0000000000001111 "
#8050000000
b0000000000001101 "
#8060000000
b00011000 #
0%
0'
#8070000000
b0000000001000000 "
b11111111 #
1%
1'
#8080000000
0%
#8090000000
b0000000000001110 "
1%
#8100000000
b11111110 #
0%
0'
#8110000000
b11111111 #
1%
1'
#8120000000
b0000000000001111 "
#8170000000
b0000000000001101 "
#8180000000
b00011000 #
0%
0'
#8190000000
b0000000001000001 "
b11111111 #
1%
1'
#8200000000
0%
#8210000000
b0000000000001110 "
1%
#8220000000
b11111110 #
0%
0'
#8230000000
b11111111 #
1%
1'
#8240000000
b0000000000001111 "
#8290000000
b0000000000001101 "
#8300000000
b00011000 #
0%
0'
#8310000000
b0000000001000010 "
b11111111 #
1%
1'
#8320000000
0%
#8330000000
b0000000000001110 "
1%
#8340000000
b11111110 #
0%
0'
#8350000000
b11111111 #
1%
1'
#8360000000
b0000000000001111 "
#8410000000
b0000000000001101 "
#8420000000
b00011000 #
0%
0'
#8430000000
b0000000001000011 "
b11111111 #
1%
1'
#8440000000
0%
#8450000000
b0000000000001110 "
1%
#8460000000
b11111110 #
0%
0'
#8470000000
b11111111 #
1%
1'
#8480000000
b0000000000001111 "
#8530000000
b0000000000001101 "
#8540000000
b00011000 #
0%
0'
#8550000000
b0000000001000100 "
b11111111 #
1%
1'
#8560000000
0%
#8570000000
b0000000000001110 "
1%
#8580000000
b11111110 #
0%
0'
#8590000000
b11111111 #
1%
1'
#8600000000
b0000000000001111 "
#8650000000
b0000000000001101 "
#8660000000
b00011000 #
0%
0'
#8670000000
b0000000001000101 "
b11111111 #
1%
1'
#8680000000
0%
#8690000000
b0000000000001110 "
1%
#8700000000
b11111110 #
0%
0'
#8710000000
b11111111 #
1%
1'
#8720000000
b0000000000001111 "
#8770000000
b0000000000001101 "
#8780000000
b00011000 #
0%
0'
#8790000000
b0000000001000110 "
b11111111 #
1%
1'
#8800000000
0%
#8810000000
b0000000000001110 "
1%
#8820000000
b11111110 #
0%
0'
#8830000000
b11111111 #
1%
1'
#8840000000
b0000000000001111 "
#8890000000
b0000000000001101 "
#8900000000
b00011000 #
0%
0'
#8910000000
b0000000001000111 "
b11111111 #
1%
1'
#8920000000
0%
#8930000000
b0000000000001110 "
1%
#8940000000
b11111110 #
0%
0'
#8950000000
b11111111 #
1%
1'
#8960000000
b0000000000001111 "
#9010000000
b0000000000001101 "
#9020000000
b00011000 #
0%
0'
#9030000000
b0000000001001000 "
b11111111 #
1%
1'
#9040000000
0%
#9050000000
b0000000000001110 "
1%
#9060000000
b11111110 #
0%
0'
#9070000000
b11111111 #
1%
1'
#9080000000
b0000000000001111 "
#9130000000
b0000000000001101 "
#9140000000
b00011000 #
0%
0'
#9150000000
b0000000001001001 "
b11111111 #
1%
1'
#9160000000
0%
#9170000000
b0000000000001110 "
1%
#9180000000
b11111110 #
0%
0'
#9190000000
b11111111 #
1%
1'
#9200000000
b0000000000001111 "
#9250000000
b0000000000001101 "
#9260000000
b00011000 #
0%
0'
#9270000000
b0000000001001010 "
b11111111 #
1%
1'
#9280000000
0%
#9290000000
b0000000000001110 "
1%
#9300000000
b11111110 #
0%
0'
#9310000000
b11111111 #
1%
1'
#9320000000
b0000000000001111 "
#9370000000
b0000000000001101 "
#9380000000
b00011000 #
0%
0'
#9390000000
b0000000001001011 "
b11111111 #
1%
1'
#9400000000
0%
#9410000000
b0000000000001110 "
1%
#9420000000
b11111110 #
0%
0'
#9430000000
b11111111 #
1%
1'
#9440000000
b0000000000001111 "
#9490000000
b0000000000001101 "
#9500000000
b00011000 #
0%
0'
#9510000000
b0000000001001100 "
b11111111 #
1%
1'
#9520000000
0%
#9530000000
b0000000000001110 "
1%
#9540000000
b11111110 #
0%
0'
#9550000000
b11111111 #
1%
1'
#9560000000
b0000000000001111 "
#9610000000
b0000000000001101 "
#9620000000
b00011000 #
0%
0'
#9630000000
b0000000001001101 "
b11111111 #
1%
1'
#9640000000
0%
#9650000000
b0000000000001110 "
1%
#9660000000
b11111110 #
0%
0'
#9670000000
b11111111 #
1%
1'
#9680000000
b0000000000001111 "
#9730000000
b0000000000001101 "
#9740000000
b00011000 #
0%
0'
#9750000000
b0000000001001110 "
b11111111 #
1%
1'
#9760000000
0%
#9770000000
b0000000000001110 "
1%
#9780000000
b11111110 #
0%
0'
#9790000000
b11111111 #
1%
1'
#9800000000
b0000000000001111 "
#9850000000
b0000000000001101 "
#9860000000
b00011000 #
0%
0'
#9870000000
b0000000001001111 "
b11111111 #
1%
1'
#9880000000
0%
#9890000000
b0000000000001110 "
1%
#9900000000
b11111110 #
0%
0'
#9910000000
b11111111 #
1%
1'
#9920000000
b0000000000001111 "
#9970000000
b0000000000001101 "
#9980000000
b00011000 #
0%
0'
#9990000000
b0000000001010000 "
b11111111 #
1%
1'
#10000000000
0%
#10010000000
b0000000000001110 "
1%
#10020000000
b11111110 #
0%
0'
#10030000000
b11111111 #
1%
1'
#10040000000
b0000000000001111 "
#10090000000
b0000000000001101 "
#10100000000
b00011000 #
0%
0'
#10110000000
b0000000001010001 "
b11111111 #
1%
1'
#10120000000
0%
#10130000000
b0000000000001110 "
1%
#10140000000
b11111110 #
0%
0'
#10150000000
b11111111 #
1%
1'
#10160000000
b0000000000001111 "
#10210000000
b0000000000001101 "
#10220000000
b00011000 #
0%
0'
#10230000000
b0000000001010010 "
b11111111 #
1%
1'
#10240000000
0%
#10250000000
b0000000000001110 "
1%
#10260000000
b11111110 #
0%
0'
#10270000000
b11111111 #
1%
1'
#10280000000
b0000000000001111 "
#10330000000
b0000000000001101 "
#10340000000
b00011000 #
0%
0'
#10350000000
b0000000001010011 "
b11111111 #
1%
1'
#10360000000
0%
#10370000000
b0000000000001110 "
1%
#10380000000
b11111110 #
0%
0'
#10390000000
b11111111 #
1%
1'
#10400000000
b0000000000001111 "
#10450000000
b0000000000001101 "
#10460000000
b00011000 #
0%
0'
#10470000000
b0000000001010100 "
b11111111 #
1%
1'
#10480000000
0%
#10490000000
b0000000000001110 "
1%
#10500000000
b11111110 #
0%
0'
#10510000000
b11111111 #
1%
1'
#10520000000
b0000000000001111 "
#10570000000
b0000000000001101 "
#10580000000
b00011000 #
0%
0'
#10590000000
b0000000001010101 "
b11111111 #
1%
1'
#10600000000
0%
#10610000000
b0000000000001110 "
1%
#10620000000
b11111110 #
0%
0'
#10630000000
b11111111 #
1%
1'
#10640000000
b0000000000001111 "
#10690000000
b0000000000001101 "
#10700000000
b00011000 #
0%
0'
#10710000000
b0000000001010110 "
b11111111 #
1%
1'
#10720000000
0%
#10730000000
b0000000000001110 "
1%
#10740000000
b11111110 #
0%
0'
#10750000000
b11111111 #
1%
1'
#10760000000
b0000000000001111 "
#10810000000
b0000000000001101 "
#10820000000
b00011000 #
0%
0'
#10830000000
b0000000001010111 "
b11111111 #
1%
1'
#10840000000
0%
#10850000000
b0000000000001110 "
1%
#10860000000
b11111110 #
0%
0'
#10870000000
b11111111 #
1%
1'
#10880000000
b0000000000001111 "
#10930000000
b0000000000001101 "
#10940000000
b00011000 #
0%
0'
#10950000000
b0000000001011000 "
b11111111 #
1%
1'
#10960000000
0%
#10970000000
b0000000000001110 "
1%
#10980000000
b11111110 #
0%
0'
#10990000000
b11111111 #
1%
1'
#11000000000
b0000000000001111 "
#11050000000
b0000000000001101 "
#11060000000
b00011000 #
0%
0'
#11070000000
b0000000001011001 "
b11111111 #
1%
1'
#11080000000
0%
#11090000000
b0000000000001110 "
1%
#11100000000
b11111110 #
0%
0'
#11110000000
b11111111 #
1%
1'
#11120000000
b0000000000001111 "
#11170000000
b0000000000001101 "
#11180000000
b00011000 #
0%
0'
#11190000000
b0000000001011010 "
b11111111 #
1%
1'
#11200000000
0%
#11210000000
b0000000000001110 "
1%
#11220000000
b11111110 #
0%
0'
#11230000000
b11111111 #
1%
1'
#11240000000
b0000000000001111 "
#11290000000
b0000000000001101 "
#11300000000
b00011000 #
0%
0'
#11310000000
b0000000001011011 "
b11111111 #
1%
1'
#11320000000
0%
#11330000000
b0000000000001110 "
1%
#11340000000
b11111110 #
0%
0'
#11350000000
b11111111 #
1%
1'
#11360000000
b0000000000001111 "
#11410000000
b0000000000001101 "
#11420000000
b00011000 #
0%
0'
#11430000000
b0000000001011100 "
b11111111 #
1%
1'
#11440000000
0%
#11450000000
b0000000000001110 "
1%
#11460000000
b11111110 #
0%
0'
#11470000000
b11111111 #
1%
1'
#11480000000
b0000000000001111 "
#11530000000
b0000000000001101 "
#11540000000
b00011000 #
0%
0'
#11550000000
b0000000001011101 "
b11111111 #
1%
1'
#11560000000
0%
#11570000000
b0000000000001110 "
1%
#11580000000
b11111110 #
0%
0'
#11590000000
b11111111 #
1%
1'
#11600000000
b0000000000001111 "
#11650000000
b0000000000001101 "
#11660000000
b00011000 #
0%
0'
#11670000000
b0000000001011110 "
b11111111 #
1%
1'
#11680000000
0%
#11690000000
b0000000000001110 "
1%
#11700000000
b11111110 #
0%
0'
#11710000000
b11111111 #
1%
1'
#11720000000
b0000000000001111 "
#11770000000
b0000000000001101 "
#11780000000
b00011000 #
0%
0'
#11790000000
b0000000001011111 "
b11111111 #
1%
1'
#11800000000
0%
#11810000000
b0000000000001110 "
1%
#11820000000
b11111110 #
0%
0'
#11830000000
b11111111 #
1%
1'
#11840000000
b0000000000001111 "
#11890000000
b0000000000001101 "
#11900000000
b00011000 #
0%
0'
#11910000000
b0000000001100000 "
b11111111 #
1%
1'
#11920000000
0%
#11930000000
b0000000000001110 "
1%
#11940000000
b11111110 #
0%
0'
#11950000000
b11111111 #
1%
1'
#11960000000
b0000000000001111 "
#12010000000
b0000000000001101 "
#12020000000
b00011000 #
0%
0'
#12030000000
b0000000001100001 "
b11111111 #
1%
1'
#12040000000
0%
